5
   
Si         0.00000        0.00000        0.00000
H          0.00000        0.00000        1.47670
H          1.39225        0.00000       -0.49223
H         -0.69612       -1.20572       -0.49223
H         -0.69612        1.20572       -0.49223
