\relax 
\@writefile{toc}{\contentsline {section}{\numberline {1}ISOORB keywords}{2}\protected@file@percent }
\@writefile{lot}{\contentsline {table}{\numberline {1}{\ignorespaces ISOORB keywords}}{2}\protected@file@percent }
\newlabel{tab:isoorb_keys}{{1}{2}}
\@writefile{toc}{\contentsline {section}{\numberline {2}H1X keywords}{2}\protected@file@percent }
\newlabel{eq:b1x_scan_ba}{{11}{3}}
\newlabel{eq:b1x_scan_bnu}{{15}{3}}
\@writefile{toc}{\contentsline {section}{\numberline {3}FINT keywords}{3}\protected@file@percent }
