\contentsline {section}{\numberline {1}Smoother interpolation functions, same functionality}{1}%
\contentsline {section}{\numberline {2}Optimized r$^2$SCAN}{5}%
\contentsline {subsection}{\numberline {2.1}Fitting R2OPT}{6}%
\contentsline {subsection}{\numberline {2.2}Tests of R2OPT in real systems}{9}%
\contentsline {section}{\numberline {3}The fourth-order expansion}{10}%
