\relax 
\@writefile{toc}{\contentsline {section}{\numberline {1}Smoother interpolation functions, same functionality}{1}\protected@file@percent }
\newlabel{eq:fsmth}{{14}{2}}
\@writefile{lof}{\contentsline {figure}{\numberline {1}{\ignorespaces Comparison of the new smooth (SMTH) X interpolation function with the SCAN and rSCAN interpolation functions (left), and their first derivatives (right). \relax }}{3}\protected@file@percent }
\providecommand*\caption@xref[2]{\@setref\relax\@undefined{#1}}
\newlabel{fig:ief_x_comp}{{1}{3}}
\@writefile{lof}{\contentsline {figure}{\numberline {2}{\ignorespaces Comparison of the new smooth (SMTH) C interpolation function with the SCAN and rSCAN interpolation functions (left), and their first derivatives (right). \relax }}{3}\protected@file@percent }
\newlabel{fig:ief_c_comp}{{2}{3}}
\newlabel{eq:c1_from_c0}{{20}{4}}
\newlabel{eq:c0_from_c1}{{23}{4}}
\newlabel{eq:c0_from_derivs}{{24}{4}}
\@writefile{lof}{\contentsline {figure}{\numberline {3}{\ignorespaces Comparison of Eq. 14\hbox {}, evaluated on the TASK parameters, and the original TASK expression, Eq. 30\hbox {}. The new expression is essentially identical to TASK for most values of $x$, but is much smoother. \relax }}{5}\protected@file@percent }
\newlabel{fig:task_ief}{{3}{5}}
\newlabel{eq:ftask}{{30}{5}}
\@writefile{toc}{\contentsline {section}{\numberline {2}Optimized r$^2$SCAN}{5}\protected@file@percent }
\newlabel{eq:r2_rev_hx}{{38}{6}}
\newlabel{eq:hx_rat_poly}{{40}{6}}
\@writefile{toc}{\contentsline {subsection}{\numberline {2.1}Fitting R2OPT}{6}\protected@file@percent }
\@writefile{lot}{\contentsline {table}{\numberline {1}{\ignorespaces Comparison of the parameters fitted to appropriate norms in SCAN, r$^2$SCAN, and R2OPT. If a parameter is used, it is indicated with a \text  {$\mathsurround \z@ \mathchar "458$}symbol, and a {\fontfamily  {pzd}\fontencoding  {U}\fontseries  {m}\fontshape  {n}\selectfont  \char 55} symbol if it is not. A parameter in parenthesis indicates that the parameter is used with a different name. The leftmost column indicates whether a parameter is used only in the exchange functional (X), the correlation functional (C), or is shared (XC). \relax }}{7}\protected@file@percent }
\newlabel{tab:fpars}{{1}{7}}
\@writefile{lot}{\contentsline {table}{\numberline {2}{\ignorespaces Mean absolute errors (MAE) for the LC23 set of solids for SCAN, r$^2$SCAN\xspace  , and R2OPT. \relax }}{9}\protected@file@percent }
\newlabel{tab:lc23}{{2}{9}}
\@writefile{lot}{\contentsline {table}{\numberline {3}{\ignorespaces AE6 mean absolute errors (MAE). The R2OPT errors are systematic. \relax }}{9}\protected@file@percent }
\newlabel{tab:ae6}{{3}{9}}
\@writefile{toc}{\contentsline {subsection}{\numberline {2.2}Tests of R2OPT in real systems}{9}\protected@file@percent }
\@writefile{toc}{\contentsline {section}{\numberline {3}The fourth-order expansion}{10}\protected@file@percent }
\newlabel{eq:hx_rat_poly_4}{{56}{10}}
