\relax 
\providecommand\hyper@newdestlabel[2]{}
\providecommand\HyperFirstAtBeginDocument{\AtBeginDocument}
\HyperFirstAtBeginDocument{\ifx\hyper@anchor\@undefined
\global\let\oldcontentsline\contentsline
\gdef\contentsline#1#2#3#4{\oldcontentsline{#1}{#2}{#3}}
\global\let\oldnewlabel\newlabel
\gdef\newlabel#1#2{\newlabelxx{#1}#2}
\gdef\newlabelxx#1#2#3#4#5#6{\oldnewlabel{#1}{{#2}{#3}}}
\AtEndDocument{\ifx\hyper@anchor\@undefined
\let\contentsline\oldcontentsline
\let\newlabel\oldnewlabel
\fi}
\fi}
\global\let\hyper@last\relax 
\gdef\HyperFirstAtBeginDocument#1{#1}
\providecommand\HyField@AuxAddToFields[1]{}
\providecommand\HyField@AuxAddToCoFields[2]{}
\citation{brack1976}
\newlabel{sec:ke_ge4}{{1}{2}{Modified kinetic energy density-gradient expansion}{section.1}{}}
\@writefile{toc}{\contentsline {section}{\numberline {1}Modified kinetic energy density-gradient expansion }{2}{section.1}\protected@file@percent }
\newlabel{eq:tau_ge_o4_unsimp}{{1.1}{2}{Modified kinetic energy density-gradient expansion}{equation.1.1}{}}
\citation{perdew2007}
\newlabel{eq:tau_ge_o4}{{1.25}{4}{Modified kinetic energy density-gradient expansion}{equation.1.25}{}}
\newlabel{eq:tau_2}{{1.26}{4}{Modified kinetic energy density-gradient expansion}{equation.1.26}{}}
\newlabel{eq:tau_4}{{1.27}{4}{Modified kinetic energy density-gradient expansion}{equation.1.27}{}}
\newlabel{eq:tau_4_div}{{1.28}{4}{Modified kinetic energy density-gradient expansion}{equation.1.28}{}}
\citation{oliver1979}
\@writefile{toc}{\contentsline {subsection}{\numberline {1.1}Spin resolution}{5}{subsection.1.1}\protected@file@percent }
\newlabel{eq:tau_ge_o2_sr}{{1.38}{5}{Spin resolution}{equation.1.38}{}}
\citation{sun2015}
\citation{furness2020}
\newlabel{sec:fx}{{2}{6}{Relationship to enhancement factors}{section.2}{}}
\@writefile{toc}{\contentsline {section}{\numberline {2}Relationship to enhancement factors }{6}{section.2}\protected@file@percent }
\@writefile{toc}{\contentsline {subsection}{\numberline {2.1}Gradient expansion and spin resolution of $\overline  {\alpha }$}{6}{subsection.2.1}\protected@file@percent }
\newlabel{eq:ba_ge_o4}{{2.6}{6}{Gradient expansion and spin resolution of $\ba $}{equation.2.6}{}}
\newlabel{eq:ge_ba_m_1_sq}{{2.7}{6}{Gradient expansion and spin resolution of $\ba $}{equation.2.7}{}}
\newlabel{eq:ge_ba_m_1_p}{{2.8}{6}{Gradient expansion and spin resolution of $\ba $}{equation.2.8}{}}
\citation{mejia2017}
\@writefile{toc}{\contentsline {subsection}{\numberline {2.2}$\overline  {\alpha }$-dependent exchange enhancement factor}{7}{subsection.2.2}\protected@file@percent }
\newlabel{eq:fx_taylor}{{2.21}{8}{$\ba $-dependent exchange enhancement factor}{equation.2.21}{}}
\@writefile{toc}{\contentsline {subsection}{\numberline {2.3}Simplifying this expression: divergence theorem}{8}{subsection.2.3}\protected@file@percent }
\newlabel{eq:q_to_p_div_thm}{{2.27}{8}{Simplifying this expression: divergence theorem}{equation.2.27}{}}
\citation{ospadov2018}
\citation{kaplan2021}
\newlabel{eq:t4_tilde_div_thm}{{2.52}{11}{Simplifying this expression: divergence theorem}{equation.2.52}{}}
\newlabel{eq:fx_final}{{2.55}{11}{Simplifying this expression: divergence theorem}{equation.2.55}{}}
\citation{furness2019}
\@writefile{toc}{\contentsline {subsection}{\numberline {2.4}Alternate iso-orbital indicators}{12}{subsection.2.4}\protected@file@percent }
\@writefile{toc}{\contentsline {subsubsection}{\numberline {2.4.1}Gradient expansion and spin resolution of $\beta $}{12}{subsubsection.2.4.1}\protected@file@percent }
\newlabel{eq:beta_ge_o4}{{2.60}{12}{Gradient expansion and spin resolution of $\beta $}{equation.2.60}{}}
\@writefile{toc}{\contentsline {subsubsection}{\numberline {2.4.2}$\beta $-dependent exchange enhancement factor}{13}{subsubsection.2.4.2}\protected@file@percent }
\citation{aschebrock2019}
\citation{aschebrock2019}
\@writefile{toc}{\contentsline {section}{\numberline {3}Comparisons to other functionals}{14}{section.3}\protected@file@percent }
\@writefile{toc}{\contentsline {subsection}{\numberline {3.1}TASK}{14}{subsection.3.1}\protected@file@percent }
\citation{aschebrock2019}
\@writefile{toc}{\contentsline {subsection}{\numberline {3.2}Higher order gradient expansion of r$^2$SCAN}{15}{subsection.3.2}\protected@file@percent }
\citation{sun2015a}
\@writefile{lot}{\contentsline {table}{\numberline {1}{\ignorespaces r$^2$SCAN fourth-order gradient expansion coefficients for exchange. \relax }}{16}{table.caption.3}\protected@file@percent }
\providecommand*\caption@xref[2]{\@setref\relax\@undefined{#1}}
\newlabel{tab:r2scan_gex4_coeffs}{{1}{16}{r$^2$SCAN fourth-order gradient expansion coefficients for exchange. \relax }{table.caption.3}{}}
\@writefile{toc}{\contentsline {subsection}{\numberline {3.3}Higher order gradient expansion of the meta-GGA Made Very Simple}{16}{subsection.3.3}\protected@file@percent }
\@writefile{lot}{\contentsline {table}{\numberline {2}{\ignorespaces MVS fourth-order gradient expansion coefficients for exchange. \relax }}{17}{table.caption.4}\protected@file@percent }
\newlabel{tab:mvs_gex4_coeffs}{{2}{17}{MVS fourth-order gradient expansion coefficients for exchange. \relax }{table.caption.4}{}}
\newlabel{sec:new_fns}{{4}{17}{The fourth-order gradient expansion for exchange}{section.4}{}}
\@writefile{toc}{\contentsline {section}{\numberline {4}The fourth-order gradient expansion for exchange }{17}{section.4}\protected@file@percent }
\newlabel{eq:cons_p}{{4.2}{17}{The fourth-order gradient expansion for exchange}{equation.4.2}{}}
\newlabel{eq:cons_qq}{{4.3}{17}{The fourth-order gradient expansion for exchange}{equation.4.3}{}}
\newlabel{eq:cons_pq}{{4.4}{17}{The fourth-order gradient expansion for exchange}{equation.4.4}{}}
\newlabel{eq:cons_pp}{{4.5}{17}{The fourth-order gradient expansion for exchange}{equation.4.5}{}}
\@writefile{toc}{\contentsline {subsection}{\numberline {4.1}r$^2$SCAN-style meta-GGA}{18}{subsection.4.1}\protected@file@percent }
\newlabel{eq:dhx_roots}{{4.7}{18}{r$^2$SCAN-style meta-GGA}{equation.4.7}{}}
\newlabel{eq:ddfx_roots}{{4.8}{18}{r$^2$SCAN-style meta-GGA}{equation.4.8}{}}
\newlabel{eq:ddhx_roots}{{4.9}{18}{r$^2$SCAN-style meta-GGA}{equation.4.9}{}}
\newlabel{eq:dfx_roots}{{4.10}{18}{r$^2$SCAN-style meta-GGA}{equation.4.10}{}}
\@writefile{toc}{\contentsline {subsection}{\numberline {4.2}MVS-style meta-GGA}{19}{subsection.4.2}\protected@file@percent }
\newlabel{eq:mvs_f1_sols}{{4.21}{19}{MVS-style meta-GGA}{equation.4.21}{}}
\@writefile{toc}{\contentsline {subsection}{\numberline {4.3}Compromise approach}{19}{subsection.4.3}\protected@file@percent }
\@writefile{lof}{\contentsline {figure}{\numberline {1}{\ignorespaces First derivative of $f_{\mathrm  {x}}(\overline  {\alpha })$, Eq. \ref  {eq:mvs_f1_sols}, in a MVS-style meta-GGA recovering the fourth-order gradient expansion for exchange, as a function of $\eta $. \relax }}{20}{figure.caption.5}\protected@file@percent }
\newlabel{fig:mvs_f1}{{1}{20}{First derivative of $f\sx (\ba )$, Eq. \ref {eq:mvs_f1_sols}, in a MVS-style meta-GGA recovering the fourth-order gradient expansion for exchange, as a function of $\eta $. \relax }{figure.caption.5}{}}
\@writefile{toc}{\contentsline {section}{\numberline {5}The minimally-modified r$^2$SCAN model}{20}{section.5}\protected@file@percent }
\newlabel{fig:f1_var_h1_eta0}{{2a}{21}{$\eta =0$, i.e. $\ba \to \alpha $. \relax }{figure.caption.6}{}}
\newlabel{sub@fig:f1_var_h1_eta0}{{a}{21}{$\eta =0$, i.e. $\ba \to \alpha $. \relax }{figure.caption.6}{}}
\newlabel{fig:f1_var_h1_eta001}{{2b}{21}{$\eta =0.001$, as it is in r$^2$SCAN. \relax }{figure.caption.6}{}}
\newlabel{sub@fig:f1_var_h1_eta001}{{b}{21}{$\eta =0.001$, as it is in r$^2$SCAN. \relax }{figure.caption.6}{}}
\newlabel{fig:f1_var_h1_eta01}{{2c}{21}{$\eta =0.01$. \relax }{figure.caption.6}{}}
\newlabel{sub@fig:f1_var_h1_eta01}{{c}{21}{$\eta =0.01$. \relax }{figure.caption.6}{}}
\@writefile{lof}{\contentsline {figure}{\numberline {2}{\ignorespaces Using $h_1$ and $h_2=0$ as control parameters, we see that there is no possible value of $h_1>0$ such that $f_1<0$, and importantly, with $f_1$ real-valued. Note that the value of $h_2$ only modulates $g_2$. \relax }}{21}{figure.caption.6}\protected@file@percent }
\newlabel{fig:f1_var_h1_eta}{{2}{21}{Using $h_1$ and $h_2=0$ as control parameters, we see that there is no possible value of $h_1>0$ such that $f_1<0$, and importantly, with $f_1$ real-valued. Note that the value of $h_2$ only modulates $g_2$. \relax }{figure.caption.6}{}}
\@writefile{toc}{\contentsline {subsection}{\numberline {5.1}Exchange}{22}{subsection.5.1}\protected@file@percent }
\@writefile{toc}{\contentsline {subsection}{\numberline {5.2}Correlation}{22}{subsection.5.2}\protected@file@percent }
\@writefile{lof}{\contentsline {figure}{\numberline {3}{\ignorespaces Comparison of the new piecewise polynomial X interpolation function with the SCAN and rSCAN interpolation functions (left), and their first derivatives (right). Here, $\eta =0.223658$. \relax }}{23}{figure.caption.7}\protected@file@percent }
\newlabel{fig:ief_x_comp}{{3}{23}{Comparison of the new piecewise polynomial X interpolation function with the SCAN and rSCAN interpolation functions (left), and their first derivatives (right). Here, $\eta =0.223658$. \relax }{figure.caption.7}{}}
\newlabel{fig:ief_c_deriv_comp}{{4b}{24}{\relax }{figure.caption.8}{}}
\newlabel{sub@fig:ief_c_deriv_comp}{{b}{24}{\relax }{figure.caption.8}{}}
\@writefile{lof}{\contentsline {figure}{\numberline {4}{\ignorespaces Comparison of the new piecewise polynomial C interpolation function with the SCAN and rSCAN interpolation functions (left), and their first derivatives (right). Note that the rSCAN interpolation function is not a monotonically decreasing function of its argument. Its derivative takes a local maximum when $x \approx 1.698292$. \relax }}{24}{figure.caption.8}\protected@file@percent }
\newlabel{fig:ief_c_comp}{{4}{24}{Comparison of the new piecewise polynomial C interpolation function with the SCAN and rSCAN interpolation functions (left), and their first derivatives (right). Note that the rSCAN interpolation function is not a monotonically decreasing function of its argument. Its derivative takes a local maximum when $x \approx 1.698292$. \relax }{figure.caption.8}{}}
\@writefile{toc}{\contentsline {subsection}{\numberline {5.3}The fitted model}{24}{subsection.5.3}\protected@file@percent }
\@writefile{lot}{\contentsline {table}{\numberline {3}{\ignorespaces Comparison of norm scores. SAXC = spherical atom XC, NSAXC = non-spherical atom XC. LZ = large-$Z$ atoms; $B_{\mathrm  {x}}$ is the leading-order correction to LDA exchange, and $B_{\mathrm  {c}}$ the leading-order correction to correlation for an atom of large, finite $Z$. JSFXC = jellium surface formation XC energies. RMSPE = root-mean-squared percent error, and PE = percent error. NAG = non-analytic $g_{\mathrm  {x}}(p)$, AG = analytic $g_{\mathrm  {x}}(p)$. \relax }}{25}{table.caption.9}\protected@file@percent }
\newlabel{tab:norms_gx_ori}{{3}{25}{Comparison of norm scores. SAXC = spherical atom XC, NSAXC = non-spherical atom XC. LZ = large-$Z$ atoms; $B\sx $ is the leading-order correction to LDA exchange, and $B\mc $ the leading-order correction to correlation for an atom of large, finite $Z$. JSFXC = jellium surface formation XC energies. RMSPE = root-mean-squared percent error, and PE = percent error. NAG = non-analytic $g\sx (p)$, AG = analytic $g\sx (p)$. \relax }{table.caption.9}{}}
\@writefile{toc}{\contentsline {subsection}{\numberline {5.4}Note about XC potential for H atom}{25}{subsection.5.4}\protected@file@percent }
\@writefile{toc}{\contentsline {section}{\numberline {6}Fitting procedure, and initial guess for parameters}{26}{section.6}\protected@file@percent }
\@writefile{toc}{\contentsline {section}{\numberline {7}Summary of Equations}{27}{section.7}\protected@file@percent }
\@writefile{toc}{\contentsline {subsection}{\numberline {7.1}Exchange}{28}{subsection.7.1}\protected@file@percent }
\citation{neupane2021}
\citation{perdew2017}
\@writefile{toc}{\contentsline {subsection}{\numberline {7.2}Correlation}{29}{subsection.7.2}\protected@file@percent }
\bibstyle{unsrt}
\bibdata{ke_ge_notes}
\bibcite{brack1976}{1}
\bibcite{perdew2007}{2}
\bibcite{oliver1979}{3}
\bibcite{sun2015}{4}
\bibcite{furness2020}{5}
\bibcite{mejia2017}{6}
\bibcite{ospadov2018}{7}
\bibcite{kaplan2021}{8}
\bibcite{furness2019}{9}
\bibcite{aschebrock2019}{10}
\bibcite{sun2015a}{11}
\bibcite{neupane2021}{12}
\bibcite{perdew2017}{13}
