\relax 
\@writefile{toc}{\contentsline {section}{\numberline {1}Exchange}{1}\protected@file@percent }
\newlabel{eq:hx_rat_poly}{{17}{2}}
\newlabel{eq:fx0_cons}{{20}{3}}
\newlabel{eq:fx1_cons}{{23}{3}}
\@writefile{toc}{\contentsline {section}{\numberline {2}Correlation}{3}\protected@file@percent }
