\relax 
\newlabel{eq:jpp_poly}{{1}{1}}
\@writefile{lof}{\contentsline {figure}{\numberline {1}{\ignorespaces Comparison of Eq. 1\hbox {}, evaluated on the TASK parameters, and the original TASK expression, Eq. 13\hbox {}. The new expression is essentially identical to TASK. \relax }}{2}\protected@file@percent }
\providecommand*\caption@xref[2]{\@setref\relax\@undefined{#1}}
\newlabel{fig:task_ief_log}{{1}{2}}
\newlabel{eq:ftask}{{13}{2}}
\@writefile{lof}{\contentsline {figure}{\numberline {2}{\ignorespaces Comparison of the smooth $f(x)$ (blue) and Eq. 1\hbox {} (green) evaluated on the TASK parameters, and the original TASK expression (orange), Eq. 13\hbox {}. \relax }}{4}\protected@file@percent }
\newlabel{fig:task_ief}{{2}{4}}
