----------------------------------------------------------------------------
|                                                                          |
|      QUEST - QUantum Electronic         .-------.                        |
|              Structure Techniques     .///////////-                      |
|                                      ://////////////-                    |
|      (c) Teale Group, University     `//////////////: .::::-----`        |
|          of Nottingham, UK             .///////////- -:::::::::::-`      |
|            ````````                      ---------. :::::::::::::::-.    |
|          .+ooooooooo+.                  /NMMMMNNNNm/`-::::::::::::::.    |
|        -+oooooooooooo+-               `sMMMMMMMMMMMMm:`-:::::::::::-     |
|      -+oooooooooooooooo/             -mMMMMMMMMMMMMMMMd:`--------:-      |
|     `+ooooooooooooooooo:`.:::::::::-`:mMMMMMMMMMMMMMMMMh                 |
|      `+oooooooooooooo+.`:////////////-`sMMMMMMMMMMMMMMy                  |
|       `+ooooooooooo+- -///////////////:`:mMMMMMMMMMMMy                   |
|        `:::::::::::`.///////////////////-`+sssssssss+                    |
|                     `///////////////////.                                |
|                      `/////////////////`                                 |
|                        ://///////////:                                   |
|                         :///////////-                                    |
|      All rights reserved.                                    ver 2019.4  |
----------------------------------------------------------------------------

Data Files
----------
Input method file: Rscan.inp
Input molecule file: Ar2_1.6.mol
Input basis file: DZ.bas
Output file: Ar2_1.6_DZ.out


Machine
-------
Machine Type: x86_64
64 bit: True
Machine Name: cypress01-115
Processor: x86_64
Number of Cores: 20

Operating System
----------------
OS System: Linux
OS Release: 2.6.32-431.23.3.el6.x86_64

Python
------
Python Compiler: GCC 7.2.0
Python Build: default May  1 2018 23:32:55
Python Implementation: CPython
Python Version: 2.7.15

Package Versions
----------------
Numpy Version No.  : 1.15.1
Scipy Version No.  : 1.1.0
Numba Version No.  : 0.39.0+0.g4e49566.dirty
H5py Version No.  : 2.8.0
Platform Version No.  : 1.0.7
Multiprocessing Version No.  : 0.70a1
 
Calculation Started on: Tue, 04 Jun 2019 17:00:53
 

Method Input
------------
@QUEST
mkl threads = 4 
method = kohn-sham
spin constraint = restricted
@INTEGRALS
one elec integrals = fast
eri integrals = fast
basis set = spherical
jengine = True
@DFT
xc library = XCfun
hfx frac = 0.0 
mu range sep = 0.0 
functional = 1.0*SCAN_X+1.0*SCAN_c
@SCF
DIIS type = c1-diis 
diis max iter = 50
@Grid
radial grid = LMG 
angular grid = Lebedev
pruning = on  
lmg threshold = 1.0e-15
weight screen threshold = 1.0e-20
lebedev target deg = 53 
lebedev min deg = 41
becke hardness = 3 
becke atomic size corrections = on
plot quantities = rho, grd, tau, lap
plot grid = DFT 


Molecule Input
--------------
charge = 0
multiplicity = 1
units = A
Ar 0.0 0.0 -0.8
Ar 0.0 0.0  0.8

Number of Atoms:  2
Number of Ghost Centres: 0


Basis Input
-----------
@Basis
type = GTO 
@Orbital Basis
orbital basis = aug-cc-pVDZ 
contraction type = contracted 


Intel MKL Acceleration Detected
-------------------------------
Intel(R) Math Kernel Library Version 2019.0.0 Product Build 20180829 for Intel(R) 64 architecture applications
No. of Physical Cores Used: 4

Molecular Geometry Analysis
---------------------------

*) Symmetry Analysis 
---------------------
 
Molecular Point Group: D2h
 

*) Bond Analysis 
-----------------
 
Bond Lengths (Bohr):
      Atoms                Species          Distance
      1 -  0               Ar - Ar             3.024
 
Bond Angles (Degrees):
      Atoms                Species             Angle
 
Out-Of-Plane Angles (Degrees):
      Atoms                Species             Angle
 
Bond Torsion Angles (Degrees):
      Atoms                Species             Angle

*) Rotational Analysis 
-----------------------
 
Center Of Mass (Bohr):
                  x              y              z
           0.000000       0.000000       0.000000
 
Moment Of Inertia Tensor (Mu*Bohr^2):
                  x              y              z
 x       182.599882       0.000000       0.000000
 y         0.000000     182.599882       0.000000
 z         0.000000       0.000000       0.000000
 
Principle MoIs (Mu*Bohr^2):
                 Ia             Ib             Ic
           0.000000     182.599882     182.599882
 
Rotational Constants:
                  A              B              C
MHz             inf    9883.582132    9883.582132
cm-1            inf       0.329681       0.329681
 
Rotational Type:  Linear Molecule

Orbital Basis Set 
------------------
Basis Type: Contracted Spherical

Atom    Number    Charge    NPrm    NCnt        Functions
----    ------    ------    ----    ----    ------------------
Ar           2     18.00     100      54    [26s18p4d|10s8p4d]
 

Nuclear-Nuclear Repulsion
-------------------------
E_nn :     107.158392898623

Molecular Integral Evaluation
-----------------------------

ShellPair Evaluation & Screening
--------------------------------
Type            NTot            NSig
 SS             5776            3856
 PS             5472            4132
 PP             1296            1104
 DS              608             600
 DP              288             288
 DD               16              16
     
No. of Overlap Integrals           :            2916
No. of Kinetic Energy Integrals    :            2916
No. of Nuclear Attraction Integrals:            5832
No. Electron Repulsion Integrals   :         8503056
No. Integrals Screened (Schwarz)   :               1
     
ShellPair Calculation Time         :           0.128
One-Electron Integral Time         :           0.504
Two-Electron Integral Time         :          10.073

DFT Quadrature Grid Generation
------------------------------
 Radial Grid Type:          LMG
Angular Grid Type:      LEBEDEV
     Grid Pruning:         True
 Total GridPoints:       203086
  Number Screened:        19162
     Time Elapsed:      1.4901s

SCF Optimization
----------------
Algorithm: C1-DIIS [8]                   
Max. Iterations:    50

No. Electrons:    36.00000

Basis     Iter                   Energy           ||FDS-SDF||    N-DIIS         Time
 (S)         1       -1043.847893558107        7.943045302795         1      14.188s
 (S)         2       -1034.659160241453        8.246430371004         2      14.144s
 (S)         3       -1053.878059058087        2.015793731989         3      14.529s
 (S)         4       -1054.497345426645        0.363213648097         4      14.455s
 (S)         5       -1054.509035333040        0.241046364387         5      14.880s
 (S)         6       -1054.515654762864        0.022927104414         6      14.559s
 (S)         7       -1054.515722797782        0.001635920057         7      14.793s
 (S)         8       -1054.515723143096        0.000182180957         8      14.612s
 (S)         9       -1054.515723147474        0.000036140888         8      14.988s
 (S)        10       -1054.515723147642        0.000000592015         8      14.487s
 (S)        11       -1054.515723147641        0.000000113759         8      14.343s

------- SCF Converged! -------

Final Molecular Orbitals
------------------------
 
Frontier Eigenvalues: 
 
          HOMO Energy (a.u.):    -0.11123
          LUMO Energy (a.u.):     0.03860
                                ---------
        HOMO-LUMO Gap (a.u.):     0.14983
 
Molecular Orbitals: 
 
-- Occupied and Lowest 5 virtual orbitals
 
--------- ---------- ---------- ---------- ---------- ----------
Occ. No.     2.00000    2.00000    2.00000    2.00000    2.00000
Orb. Ene. -114.76740 -114.76740  -11.08060  -11.08053   -8.61608
--------- ---------- ---------- ---------- ---------- ----------
        1    0.70709    0.70707    0.00076    0.00161    0.00013
        2    0.00017    0.00002    0.71434    0.72015   -0.00069
        3   -0.00061   -0.00093    0.02266    0.03479    0.00308
        4   -0.00007    0.00079   -0.02166   -0.05884   -0.00161
        5   -0.00054    0.00001    0.00314   -0.00967   -0.00029
        6   -0.00000    0.00000   -0.00000    0.00000   -0.00000
        7   -0.00000    0.00000    0.00000    0.00000   -0.00000
        8   -0.00000   -0.00000    0.00174    0.00144    0.70764
        9   -0.00000    0.00000   -0.00000   -0.00000   -0.00000
       10   -0.00000    0.00000    0.00000    0.00000   -0.00000
       11   -0.00001    0.00000    0.00188    0.00158    0.00971
       12    0.00000   -0.00000    0.00000    0.00000    0.00000
       13    0.00000   -0.00000   -0.00000   -0.00000    0.00000
       14   -0.00061    0.00000   -0.00159   -0.02632   -0.00685
       15   -0.00000    0.00000    0.00000   -0.00000   -0.00000
       16    0.00000    0.00000    0.00000    0.00000    0.00000
       17   -0.00010    0.00000    0.00043   -0.00099    0.00012
       18   -0.00000    0.00000    0.00000   -0.00000    0.00000
       19    0.00000   -0.00000    0.00000    0.00000   -0.00000
       20   -0.00001    0.00000   -0.00005    0.00145    0.00087
       21    0.00000   -0.00000   -0.00000    0.00000   -0.00000
       22    0.00000   -0.00000    0.00000   -0.00000    0.00000
       23    0.00000   -0.00000    0.00000   -0.00000   -0.00000
       24   -0.00000    0.00000   -0.00000   -0.00000   -0.00000
       25   -0.00021   -0.00000   -0.00098   -0.00897   -0.00101
       26    0.00000   -0.00000    0.00000    0.00000    0.00000
       27   -0.00000    0.00000   -0.00000    0.00000   -0.00000
       28   -0.70709    0.70707    0.00076   -0.00161    0.00013
       29   -0.00017    0.00002    0.71434   -0.72015   -0.00069
       30    0.00061   -0.00093    0.02266   -0.03479    0.00308
       31    0.00007    0.00079   -0.02166    0.05884   -0.00161
       32    0.00054    0.00001    0.00314    0.00967   -0.00029
       33    0.00000   -0.00000    0.00000   -0.00000    0.00000
       34   -0.00000   -0.00000   -0.00000    0.00000   -0.00000
       35   -0.00000    0.00000   -0.00174    0.00144   -0.70764
       36    0.00000   -0.00000    0.00000    0.00000    0.00000
       37   -0.00000   -0.00000    0.00000   -0.00000   -0.00000
       38   -0.00001   -0.00000   -0.00188    0.00158   -0.00971
       39   -0.00000    0.00000   -0.00000   -0.00000   -0.00000
       40    0.00000   -0.00000   -0.00000    0.00000    0.00000
       41   -0.00061   -0.00000    0.00159   -0.02632    0.00685
       42    0.00000   -0.00000   -0.00000    0.00000    0.00000
       43   -0.00000   -0.00000   -0.00000   -0.00000   -0.00000
       44   -0.00010   -0.00000   -0.00043   -0.00099   -0.00012
       45    0.00000   -0.00000    0.00000   -0.00000    0.00000
       46   -0.00000   -0.00000    0.00000   -0.00000    0.00000
       47    0.00001    0.00000   -0.00005   -0.00145    0.00087
       48    0.00000   -0.00000   -0.00000    0.00000   -0.00000
       49   -0.00000    0.00000   -0.00000    0.00000    0.00000
       50   -0.00000    0.00000   -0.00000    0.00000   -0.00000
       51    0.00000    0.00000   -0.00000    0.00000   -0.00000
       52    0.00021   -0.00000   -0.00098    0.00897   -0.00101
       53    0.00000   -0.00000    0.00000    0.00000    0.00000
       54    0.00000   -0.00000    0.00000   -0.00000   -0.00000
--------- ---------- ---------- ---------- ---------- ----------
Occ. No.     2.00000    2.00000    2.00000    2.00000    2.00000
Orb. Ene.   -8.61503   -8.60708   -8.60708   -8.60699   -8.60699
--------- ---------- ---------- ---------- ---------- ----------
        1    0.00007    0.00000    0.00000   -0.00000   -0.00000
        2   -0.00082    0.00000    0.00000   -0.00000   -0.00000
        3    0.00217    0.00000    0.00000   -0.00000   -0.00000
        4   -0.00210   -0.00000   -0.00000    0.00000    0.00000
        5   -0.00281   -0.00000   -0.00000    0.00000    0.00000
        6    0.00000    0.14502   -0.69255    0.56717   -0.42309
        7   -0.00000   -0.69255   -0.14502    0.42309    0.56717
        8    0.70774   -0.00000   -0.00000    0.00000    0.00000
        9    0.00000    0.00170   -0.00811    0.00666   -0.00497
       10   -0.00000   -0.00811   -0.00170    0.00497    0.00666
       11    0.00942   -0.00000   -0.00000    0.00000    0.00000
       12   -0.00000   -0.00111    0.00531   -0.00482    0.00360
       13    0.00000    0.00531    0.00111   -0.00360   -0.00482
       14   -0.00735   -0.00000   -0.00000    0.00000    0.00000
       15    0.00000    0.00003   -0.00013    0.00018   -0.00014
       16   -0.00000   -0.00013   -0.00003    0.00014    0.00018
       17   -0.00061   -0.00000   -0.00000    0.00000    0.00000
       18   -0.00000    0.00000   -0.00000    0.00000   -0.00000
       19    0.00000   -0.00060   -0.00013    0.00040    0.00053
       20    0.00119   -0.00000    0.00000   -0.00000    0.00000
       21    0.00000    0.00013   -0.00060    0.00053   -0.00040
       22   -0.00000   -0.00000   -0.00000   -0.00000   -0.00000
       23   -0.00000   -0.00000    0.00000   -0.00000    0.00000
       24   -0.00000    0.00022    0.00005   -0.00036   -0.00049
       25   -0.00064   -0.00000   -0.00000    0.00000    0.00000
       26   -0.00000   -0.00005    0.00022   -0.00049    0.00036
       27    0.00000    0.00000    0.00000    0.00000    0.00000
       28   -0.00007   -0.00000   -0.00000    0.00000    0.00000
       29    0.00082   -0.00000   -0.00000    0.00000    0.00000
       30   -0.00217   -0.00000   -0.00000    0.00000    0.00000
       31    0.00210    0.00000    0.00000   -0.00000   -0.00000
       32    0.00281    0.00000    0.00000   -0.00000   -0.00000
       33    0.00000    0.14502   -0.69255   -0.56717    0.42309
       34    0.00000   -0.69255   -0.14502   -0.42309   -0.56717
       35    0.70774    0.00000    0.00000   -0.00000    0.00000
       36    0.00000    0.00170   -0.00811   -0.00666    0.00497
       37    0.00000   -0.00811   -0.00170   -0.00497   -0.00666
       38    0.00942    0.00000    0.00000   -0.00000    0.00000
       39    0.00000   -0.00111    0.00531    0.00482   -0.00360
       40   -0.00000    0.00531    0.00111    0.00360    0.00482
       41   -0.00735   -0.00000   -0.00000    0.00000    0.00000
       42   -0.00000    0.00003   -0.00013   -0.00018    0.00014
       43    0.00000   -0.00013   -0.00003   -0.00014   -0.00018
       44   -0.00061   -0.00000   -0.00000    0.00000    0.00000
       45   -0.00000    0.00000    0.00000   -0.00000   -0.00000
       46   -0.00000    0.00060    0.00013    0.00040    0.00053
       47   -0.00119   -0.00000   -0.00000    0.00000   -0.00000
       48    0.00000   -0.00013    0.00060    0.00053   -0.00040
       49   -0.00000    0.00000    0.00000    0.00000    0.00000
       50   -0.00000    0.00000   -0.00000    0.00000   -0.00000
       51   -0.00000   -0.00022   -0.00005   -0.00036   -0.00049
       52    0.00064    0.00000    0.00000   -0.00000   -0.00000
       53   -0.00000    0.00005   -0.00022   -0.00049    0.00036
       54   -0.00000   -0.00000   -0.00000   -0.00000   -0.00000
--------- ---------- ---------- ---------- ---------- ----------
Occ. No.     2.00000    2.00000    2.00000    2.00000    2.00000
Orb. Ene.   -1.20532   -0.86410   -0.58794   -0.55116   -0.55116
--------- ---------- ---------- ---------- ---------- ----------
        1   -0.00175    0.00053   -0.00196    0.00000    0.00000
        2   -0.00136    0.00594   -0.01175    0.00000    0.00000
        3   -0.64717   -0.71785    0.24435   -0.00000    0.00000
        4    0.07989   -0.08985    0.08595   -0.00000   -0.00000
        5    0.00952   -0.07245    0.03982   -0.00000   -0.00000
        6    0.00000    0.00000   -0.00000   -0.00233    0.00456
        7   -0.00000    0.00000   -0.00000   -0.00456   -0.00233
        8    0.00977   -0.00692    0.00555   -0.00000    0.00000
        9   -0.00000   -0.00000    0.00000    0.31117   -0.60716
       10   -0.00000   -0.00000    0.00000    0.60716    0.31117
       11   -0.26717    0.12203   -0.69162    0.00000    0.00000
       12   -0.00000   -0.00000   -0.00000   -0.02823    0.05508
       13    0.00000    0.00000   -0.00000   -0.05508   -0.02823
       14    0.09023   -0.09491    0.12115   -0.00000   -0.00000
       15   -0.00000    0.00000    0.00000    0.00005   -0.00009
       16   -0.00000   -0.00000    0.00000    0.00009    0.00005
       17    0.00752   -0.00825    0.00320   -0.00000   -0.00000
       18   -0.00000   -0.00000   -0.00000    0.00000    0.00000
       19    0.00000    0.00000    0.00000    0.05608    0.02874
       20   -0.04667    0.01958   -0.05382    0.00000    0.00000
       21   -0.00000   -0.00000    0.00000    0.02874   -0.05608
       22    0.00000    0.00000   -0.00000    0.00000   -0.00000
       23    0.00000    0.00000    0.00000    0.00000    0.00000
       24    0.00000   -0.00000   -0.00000    0.02049    0.01050
       25    0.00322   -0.01899   -0.00482   -0.00000   -0.00000
       26   -0.00000    0.00000   -0.00000    0.01050   -0.02049
       27    0.00000   -0.00000   -0.00000    0.00000   -0.00000
       28   -0.00175   -0.00053   -0.00196    0.00000   -0.00000
       29   -0.00136   -0.00594   -0.01175    0.00000   -0.00000
       30   -0.64717    0.71785    0.24435   -0.00000    0.00000
       31    0.07989    0.08985    0.08595   -0.00000    0.00000
       32    0.00952    0.07245    0.03982    0.00000    0.00000
       33    0.00000    0.00000   -0.00000   -0.00233    0.00456
       34    0.00000   -0.00000   -0.00000   -0.00456   -0.00233
       35   -0.00977   -0.00692   -0.00555    0.00000    0.00000
       36   -0.00000    0.00000    0.00000    0.31117   -0.60716
       37    0.00000   -0.00000    0.00000    0.60716    0.31117
       38    0.26717    0.12203    0.69162   -0.00000   -0.00000
       39    0.00000   -0.00000   -0.00000   -0.02823    0.05508
       40    0.00000    0.00000   -0.00000   -0.05508   -0.02823
       41   -0.09023   -0.09491   -0.12115    0.00000   -0.00000
       42    0.00000   -0.00000   -0.00000    0.00005   -0.00009
       43   -0.00000    0.00000    0.00000    0.00009    0.00005
       44   -0.00752   -0.00825   -0.00320   -0.00000   -0.00000
       45   -0.00000    0.00000    0.00000    0.00000    0.00000
       46   -0.00000    0.00000   -0.00000   -0.05608   -0.02874
       47   -0.04667   -0.01958   -0.05382    0.00000    0.00000
       48    0.00000    0.00000    0.00000   -0.02874    0.05608
       49    0.00000   -0.00000   -0.00000    0.00000    0.00000
       50   -0.00000    0.00000   -0.00000    0.00000    0.00000
       51   -0.00000   -0.00000   -0.00000   -0.02049   -0.01050
       52    0.00322    0.01899   -0.00482   -0.00000    0.00000
       53   -0.00000    0.00000   -0.00000   -0.01050    0.02049
       54    0.00000    0.00000    0.00000    0.00000   -0.00000
--------- ---------- ---------- ---------- ---------- ----------
Occ. No.     2.00000    2.00000    2.00000    0.00000    0.00000
Orb. Ene.   -0.35325   -0.35325   -0.11123    0.03860    0.06694
--------- ---------- ---------- ---------- ---------- ----------
        1   -0.00000    0.00000   -0.00034   -0.00224    0.00195
        2   -0.00000    0.00000   -0.01116   -0.00710    0.01345
        3   -0.00000    0.00000   -0.31171    0.23014    0.04129
        4    0.00000   -0.00000   -0.25975    0.54648   -0.02860
        5    0.00000    0.00000   -0.65228   -0.83809    2.58431
        6   -0.00133   -0.00126    0.00000    0.00000   -0.00000
        7   -0.00126    0.00133    0.00000    0.00000    0.00000
        8   -0.00000    0.00000   -0.01346    0.00741   -0.01172
        9   -0.55685   -0.53094    0.00000    0.00000   -0.00000
       10   -0.53094    0.55685    0.00000   -0.00000    0.00000
       11   -0.00000   -0.00000   -0.73234   -0.03298   -0.37250
       12   -0.01929   -0.01840   -0.00000   -0.00000   -0.00000
       13   -0.01840    0.01929   -0.00000   -0.00000    0.00000
       14    0.00000   -0.00000   -0.28321   -0.11744    0.17925
       15   -0.02386   -0.02275    0.00000   -0.00000    0.00000
       16   -0.02275    0.02386    0.00000    0.00000    0.00000
       17    0.00000    0.00000   -0.34054   -0.07415    1.54466
       18   -0.00000   -0.00000   -0.00000    0.00000    0.00000
       19    0.01434   -0.01504   -0.00000    0.00000    0.00000
       20    0.00000    0.00000    0.09581    0.08947    0.03042
       21    0.01504    0.01434   -0.00000    0.00000   -0.00000
       22   -0.00000    0.00000    0.00000    0.00000   -0.00000
       23   -0.00000    0.00000    0.00000    0.00000    0.00000
       24   -0.00557    0.00584   -0.00000    0.00000    0.00000
       25    0.00000   -0.00000    0.02821    0.02935    0.14063
       26   -0.00584   -0.00557   -0.00000   -0.00000   -0.00000
       27    0.00000   -0.00000   -0.00000    0.00000    0.00000
       28    0.00000   -0.00000    0.00034   -0.00224   -0.00195
       29    0.00000   -0.00000    0.01116   -0.00710   -0.01345
       30    0.00000   -0.00000    0.31171    0.23014   -0.04129
       31   -0.00000    0.00000    0.25975    0.54648    0.02860
       32   -0.00000   -0.00000    0.65228   -0.83809   -2.58431
       33    0.00133    0.00126   -0.00000    0.00000    0.00000
       34    0.00126   -0.00133   -0.00000    0.00000    0.00000
       35   -0.00000   -0.00000   -0.01346   -0.00741   -0.01172
       36    0.55685    0.53094   -0.00000    0.00000   -0.00000
       37    0.53094   -0.55685   -0.00000   -0.00000    0.00000
       38   -0.00000   -0.00000   -0.73234    0.03298   -0.37250
       39    0.01929    0.01840    0.00000    0.00000   -0.00000
       40    0.01840   -0.01929    0.00000   -0.00000    0.00000
       41    0.00000   -0.00000   -0.28321    0.11744    0.17925
       42    0.02386    0.02275   -0.00000   -0.00000    0.00000
       43    0.02275   -0.02386   -0.00000    0.00000   -0.00000
       44    0.00000   -0.00000   -0.34054    0.07415    1.54466
       45   -0.00000   -0.00000    0.00000    0.00000    0.00000
       46    0.01434   -0.01504   -0.00000   -0.00000   -0.00000
       47   -0.00000   -0.00000   -0.09581    0.08947   -0.03042
       48    0.01504    0.01434   -0.00000   -0.00000    0.00000
       49    0.00000   -0.00000   -0.00000    0.00000   -0.00000
       50    0.00000   -0.00000   -0.00000   -0.00000    0.00000
       51   -0.00557    0.00584   -0.00000   -0.00000    0.00000
       52   -0.00000   -0.00000   -0.02821    0.02935   -0.14063
       53   -0.00584   -0.00557   -0.00000    0.00000    0.00000
       54    0.00000    0.00000    0.00000    0.00000   -0.00000
--------- ---------- ---------- ---------- ---------- ----------
Occ. No.     0.00000    0.00000    0.00000    0.00000    0.00000
Orb. Ene.    0.07253    0.07253    0.08155    0.12886    0.12886
--------- ---------- ---------- ---------- ---------- ----------
        1   -0.00000   -0.00000   -0.00263    0.00000    0.00000
        2   -0.00000   -0.00000   -0.01644    0.00000    0.00000
        3   -0.00000   -0.00000    0.00977    0.00000   -0.00000
        4    0.00000    0.00000    0.09234   -0.00000   -0.00000
        5   -0.00000   -0.00000   -0.48014    0.00000    0.00000
        6   -0.00164   -0.00303    0.00000    0.00100   -0.00301
        7    0.00303   -0.00164    0.00000   -0.00301   -0.00100
        8    0.00000    0.00000   -0.00613    0.00000    0.00000
        9   -0.08988   -0.16676   -0.00000    0.06535   -0.19691
       10    0.16676   -0.08988    0.00000   -0.19691   -0.06535
       11    0.00000    0.00000   -0.16015    0.00000    0.00000
       12   -0.05511   -0.10225   -0.00000    0.05695   -0.17162
       13    0.10225   -0.05511    0.00000   -0.17162   -0.05695
       14    0.00000    0.00000   -0.01628   -0.00000   -0.00000
       15    0.29445    0.54629    0.00000   -0.52991    1.59681
       16   -0.54629    0.29445   -0.00000    1.59681    0.52991
       17   -0.00000    0.00000    1.13582   -0.00000   -0.00000
       18    0.00000    0.00000    0.00000    0.00000    0.00000
       19    0.05215   -0.02811    0.00000   -0.02167   -0.00719
       20    0.00000   -0.00000   -0.09233   -0.00000    0.00000
       21   -0.02811   -0.05215    0.00000    0.00719   -0.02167
       22    0.00000   -0.00000   -0.00000   -0.00000    0.00000
       23   -0.00000    0.00000    0.00000    0.00000   -0.00000
       24    0.04261   -0.02297    0.00000   -0.03005   -0.00997
       25    0.00000   -0.00000   -0.04784   -0.00000   -0.00000
       26   -0.02297   -0.04261   -0.00000    0.00997   -0.03005
       27    0.00000   -0.00000   -0.00000   -0.00000    0.00000
       28    0.00000    0.00000   -0.00263   -0.00000   -0.00000
       29    0.00000    0.00000   -0.01644   -0.00000   -0.00000
       30    0.00000    0.00000    0.00977    0.00000   -0.00000
       31   -0.00000    0.00000    0.09234    0.00000    0.00000
       32    0.00000   -0.00000   -0.48014   -0.00000   -0.00000
       33   -0.00164   -0.00303   -0.00000   -0.00100    0.00301
       34    0.00303   -0.00164    0.00000    0.00301    0.00100
       35    0.00000   -0.00000    0.00613    0.00000   -0.00000
       36   -0.08988   -0.16676   -0.00000   -0.06535    0.19691
       37    0.16676   -0.08988    0.00000    0.19691    0.06535
       38    0.00000    0.00000    0.16015    0.00000    0.00000
       39   -0.05511   -0.10225    0.00000   -0.05695    0.17162
       40    0.10225   -0.05511   -0.00000    0.17162    0.05695
       41    0.00000    0.00000    0.01628   -0.00000   -0.00000
       42    0.29445    0.54629   -0.00000    0.52991   -1.59681
       43   -0.54629    0.29445   -0.00000   -1.59681   -0.52991
       44   -0.00000   -0.00000   -1.13582   -0.00000    0.00000
       45    0.00000    0.00000   -0.00000    0.00000   -0.00000
       46   -0.05215    0.02811   -0.00000   -0.02167   -0.00719
       47    0.00000    0.00000   -0.09233    0.00000    0.00000
       48    0.02811    0.05215   -0.00000    0.00719   -0.02167
       49    0.00000   -0.00000   -0.00000   -0.00000    0.00000
       50    0.00000    0.00000    0.00000    0.00000   -0.00000
       51   -0.04261    0.02297    0.00000   -0.03005   -0.00997
       52    0.00000   -0.00000   -0.04784    0.00000    0.00000
       53    0.02297    0.04261    0.00000    0.00997   -0.03005
       54    0.00000    0.00000   -0.00000    0.00000    0.00000
--------- ---------- ---------- ---------- ---------- ----------
Occ. No.     0.00000    0.00000    0.00000    0.00000    0.00000
Orb. Ene.    0.22977    0.22978    0.25959    0.26925    0.26925
--------- ---------- ---------- ---------- ---------- ----------
        1    0.00000    0.00000    0.01523    0.00000    0.00000
        2    0.00000    0.00000    0.10937    0.00000    0.00000
        3    0.00000   -0.00000    0.42669   -0.00000   -0.00000
        4   -0.00000   -0.00000   -0.20975   -0.00000   -0.00000
        5    0.00000    0.00000   -8.61902    0.00000    0.00000
        6   -0.00000   -0.00000   -0.00000    0.00346   -0.00376
        7    0.00000   -0.00000   -0.00000   -0.00376   -0.00346
        8   -0.00000    0.00000    0.00788   -0.00000   -0.00000
        9   -0.00000   -0.00000   -0.00000    0.12612   -0.13703
       10   -0.00000   -0.00000   -0.00000   -0.13703   -0.12612
       11    0.00000    0.00000   -0.06873    0.00000   -0.00000
       12   -0.00000   -0.00000    0.00000    0.11696   -0.12708
       13   -0.00000   -0.00000    0.00000   -0.12708   -0.11696
       14    0.00000   -0.00000   -1.58665    0.00000   -0.00000
       15   -0.00000   -0.00000    0.00000   -0.11570    0.12571
       16   -0.00000    0.00000   -0.00000    0.12571    0.11570
       17    0.00000    0.00000   -2.53077    0.00000   -0.00000
       18   -0.17865    0.00000    0.00000   -0.00000    0.00000
       19    0.00000    0.00000    0.00000    0.18731    0.17240
       20    0.00000    0.00000    0.04929   -0.00000   -0.00000
       21    0.00000    0.00000   -0.00000   -0.17240    0.18731
       22    0.00000    0.17868   -0.00000   -0.00000   -0.00000
       23   -0.50483    0.00000    0.00000   -0.00000    0.00000
       24    0.00000    0.00000    0.00000    0.32141    0.29582
       25   -0.00000   -0.00000   -0.36538    0.00000    0.00000
       26    0.00000    0.00000    0.00000   -0.29582    0.32141
       27    0.00000    0.50481    0.00000   -0.00000   -0.00000
       28    0.00000   -0.00000   -0.01523    0.00000   -0.00000
       29    0.00000   -0.00000   -0.10937    0.00000   -0.00000
       30    0.00000   -0.00000   -0.42669    0.00000   -0.00000
       31    0.00000    0.00000    0.20975    0.00000    0.00000
       32   -0.00000   -0.00000    8.61902   -0.00000   -0.00000
       33   -0.00000    0.00000    0.00000    0.00346   -0.00376
       34   -0.00000   -0.00000    0.00000   -0.00376   -0.00346
       35   -0.00000   -0.00000    0.00788   -0.00000    0.00000
       36   -0.00000   -0.00000    0.00000    0.12612   -0.13703
       37   -0.00000   -0.00000    0.00000   -0.13703   -0.12612
       38   -0.00000    0.00000   -0.06873   -0.00000   -0.00000
       39   -0.00000   -0.00000   -0.00000    0.11696   -0.12708
       40   -0.00000   -0.00000   -0.00000   -0.12708   -0.11696
       41    0.00000    0.00000   -1.58665    0.00000   -0.00000
       42    0.00000    0.00000    0.00000   -0.11570    0.12571
       43    0.00000    0.00000   -0.00000    0.12571    0.11570
       44    0.00000    0.00000   -2.53077    0.00000    0.00000
       45   -0.17865    0.00000   -0.00000   -0.00000    0.00000
       46   -0.00000   -0.00000    0.00000   -0.18731   -0.17240
       47    0.00000    0.00000   -0.04929    0.00000   -0.00000
       48   -0.00000   -0.00000    0.00000    0.17240   -0.18731
       49    0.00000    0.17868    0.00000   -0.00000   -0.00000
       50   -0.50483    0.00000   -0.00000   -0.00000    0.00000
       51   -0.00000   -0.00000    0.00000   -0.32141   -0.29582
       52    0.00000    0.00000    0.36538   -0.00000    0.00000
       53   -0.00000   -0.00000    0.00000    0.29582   -0.32141
       54    0.00000    0.50481   -0.00000   -0.00000   -0.00000
--------- ---------- ---------- ---------- ---------- ----------
Occ. No.     0.00000    0.00000    0.00000    0.00000    0.00000
Orb. Ene.    0.39923    0.43598    0.43600    0.64415    0.64415
--------- ---------- ---------- ---------- ---------- ----------
        1   -0.01642    0.00000    0.00000   -0.00000   -0.00000
        2   -0.10823    0.00000    0.00000   -0.00000   -0.00000
        3   -0.16901   -0.00000    0.00000   -0.00000   -0.00000
        4    0.78909   -0.00000   -0.00000    0.00000    0.00000
        5   -0.23014    0.00000   -0.00000    0.00000   -0.00000
        6    0.00000    0.00000    0.00000   -0.04732    0.04213
        7    0.00000   -0.00000    0.00000   -0.04213   -0.04732
        8   -0.02691    0.00000   -0.00000   -0.00000   -0.00000
        9   -0.00000    0.00000    0.00000   -0.49578    0.44139
       10    0.00000   -0.00000    0.00000   -0.44139   -0.49578
       11   -0.24400    0.00000   -0.00000   -0.00000   -0.00000
       12   -0.00000   -0.00000   -0.00000    0.24020   -0.21385
       13    0.00000    0.00000   -0.00000    0.21385    0.24020
       14    0.58452   -0.00000   -0.00000    0.00000    0.00000
       15    0.00000   -0.00000   -0.00000   -0.54885    0.48864
       16    0.00000   -0.00000   -0.00000   -0.48864   -0.54885
       17   -0.92855    0.00000   -0.00000    0.00000   -0.00000
       18   -0.00000    0.20956   -0.00000   -0.00000   -0.00000
       19    0.00000   -0.00000   -0.00000   -0.12744   -0.14314
       20   -0.24186   -0.00000   -0.00000    0.00000    0.00000
       21    0.00000   -0.00000   -0.00000   -0.14314    0.12744
       22   -0.00000   -0.00000   -0.20957    0.00000   -0.00000
       23   -0.00000    0.69184   -0.00000   -0.00000    0.00000
       24    0.00000    0.00000   -0.00000   -0.64233   -0.72148
       25   -0.50543   -0.00000   -0.00000    0.00000   -0.00000
       26   -0.00000   -0.00000   -0.00000   -0.72148    0.64233
       27    0.00000   -0.00000   -0.69184    0.00000    0.00000
       28   -0.01642   -0.00000   -0.00000    0.00000    0.00000
       29   -0.10823   -0.00000   -0.00000    0.00000    0.00000
       30   -0.16901    0.00000   -0.00000    0.00000    0.00000
       31    0.78909    0.00000    0.00000   -0.00000    0.00000
       32   -0.23014   -0.00000    0.00000   -0.00000    0.00000
       33   -0.00000   -0.00000    0.00000    0.04732   -0.04213
       34   -0.00000    0.00000   -0.00000    0.04213    0.04732
       35    0.02691    0.00000   -0.00000   -0.00000   -0.00000
       36   -0.00000   -0.00000    0.00000    0.49578   -0.44139
       37    0.00000    0.00000   -0.00000    0.44139    0.49578
       38    0.24400    0.00000   -0.00000   -0.00000   -0.00000
       39    0.00000    0.00000   -0.00000   -0.24020    0.21385
       40   -0.00000   -0.00000    0.00000   -0.21385   -0.24020
       41   -0.58452   -0.00000   -0.00000    0.00000    0.00000
       42   -0.00000    0.00000    0.00000    0.54885   -0.48864
       43    0.00000   -0.00000    0.00000    0.48864    0.54885
       44    0.92855    0.00000    0.00000    0.00000    0.00000
       45    0.00000   -0.20956    0.00000    0.00000    0.00000
       46   -0.00000    0.00000    0.00000   -0.12744   -0.14314
       47   -0.24186    0.00000    0.00000   -0.00000    0.00000
       48   -0.00000   -0.00000    0.00000   -0.14314    0.12744
       49   -0.00000    0.00000    0.20957    0.00000    0.00000
       50    0.00000   -0.69184    0.00000    0.00000   -0.00000
       51    0.00000    0.00000    0.00000   -0.64233   -0.72148
       52   -0.50543    0.00000    0.00000   -0.00000    0.00000
       53    0.00000   -0.00000   -0.00000   -0.72148    0.64233
       54    0.00000    0.00000    0.69184   -0.00000    0.00000
--------- ---------- ---------- ---------- ---------- ----------
Occ. No.     0.00000    0.00000    0.00000    0.00000    0.00000
Orb. Ene.    0.71715    0.72334    0.72334    0.79531    0.88138
--------- ---------- ---------- ---------- ---------- ----------
        1    0.00389   -0.00000    0.00000    0.05013    0.00000
        2    0.04657   -0.00000    0.00000    0.31045    0.00000
        3    0.38296   -0.00000    0.00000    0.29370    0.00000
        4    1.03327   -0.00000   -0.00000   -3.59886   -0.00000
        5    4.25392   -0.00000    0.00000   -8.32696   -0.00000
        6   -0.00000   -0.00245    0.13855   -0.00000    0.05332
        7   -0.00000   -0.13855   -0.00245   -0.00000    0.12339
        8    0.08859   -0.00000    0.00000    0.09738    0.00000
        9   -0.00000   -0.02192    1.23741   -0.00000    0.41780
       10   -0.00000   -1.23741   -0.02192   -0.00000    0.96688
       11    0.92766   -0.00000    0.00000    0.79320    0.00000
       12    0.00000    0.02782   -1.57080    0.00000   -0.97860
       13    0.00000    1.57080    0.02782    0.00000   -2.26468
       14    1.28157    0.00000   -0.00000   -6.21058   -0.00000
       15   -0.00000   -0.00722    0.40763   -0.00000    0.23740
       16   -0.00000   -0.40763   -0.00722   -0.00000    0.54938
       17    1.18243   -0.00000    0.00000   -1.63462   -0.00000
       18    0.00000   -0.00000    0.00000   -0.00000    0.00000
       19   -0.00000   -0.04397   -0.00078   -0.00000   -0.09751
       20    0.05916   -0.00000    0.00000   -0.09315    0.00000
       21   -0.00000   -0.00078    0.04397    0.00000   -0.04214
       22    0.00000    0.00000    0.00000   -0.00000    0.00000
       23    0.00000    0.00000   -0.00000   -0.00000   -0.00000
       24    0.00000    0.00180    0.00003    0.00000   -0.92300
       25    1.30035   -0.00000    0.00000   -1.63301   -0.00000
       26    0.00000    0.00003   -0.00180    0.00000   -0.39884
       27   -0.00000    0.00000   -0.00000    0.00000   -0.00000
       28   -0.00389    0.00000   -0.00000   -0.05013   -0.00000
       29   -0.04657    0.00000   -0.00000   -0.31045   -0.00000
       30   -0.38296    0.00000   -0.00000   -0.29370   -0.00000
       31   -1.03327    0.00000    0.00000    3.59886    0.00000
       32   -4.25392    0.00000   -0.00000    8.32696    0.00000
       33   -0.00000   -0.00245    0.13855    0.00000   -0.05332
       34   -0.00000   -0.13855   -0.00245   -0.00000   -0.12339
       35    0.08859   -0.00000    0.00000    0.09738    0.00000
       36   -0.00000   -0.02192    1.23741    0.00000   -0.41780
       37   -0.00000   -1.23741   -0.02192   -0.00000   -0.96688
       38    0.92766   -0.00000    0.00000    0.79320    0.00000
       39    0.00000    0.02782   -1.57080   -0.00000    0.97860
       40    0.00000    1.57080    0.02782   -0.00000    2.26468
       41    1.28157    0.00000   -0.00000   -6.21058   -0.00000
       42   -0.00000   -0.00722    0.40763    0.00000   -0.23740
       43   -0.00000   -0.40763   -0.00722    0.00000   -0.54938
       44    1.18243   -0.00000    0.00000   -1.63462   -0.00000
       45    0.00000   -0.00000   -0.00000   -0.00000   -0.00000
       46    0.00000    0.04397    0.00078    0.00000   -0.09751
       47   -0.05916    0.00000   -0.00000    0.09315   -0.00000
       48    0.00000    0.00078   -0.04397   -0.00000   -0.04214
       49    0.00000   -0.00000   -0.00000    0.00000   -0.00000
       50   -0.00000    0.00000    0.00000    0.00000    0.00000
       51    0.00000   -0.00180   -0.00003    0.00000   -0.92300
       52   -1.30035    0.00000   -0.00000    1.63301    0.00000
       53    0.00000   -0.00003    0.00180    0.00000   -0.39884
       54    0.00000    0.00000   -0.00000   -0.00000   -0.00000
--------- ---------- ---------- ---------- ---------- ----------
Occ. No.     0.00000    0.00000    0.00000    0.00000    0.00000
Orb. Ene.    0.88138    0.95230    1.19320    1.23263    1.23263
--------- ---------- ---------- ---------- ---------- ----------
        1   -0.00000    0.07945   -0.15102   -0.00000    0.00000
        2   -0.00000    0.55297   -1.06116   -0.00000    0.00000
        3   -0.00000    1.42224   -2.68569   -0.00000    0.00000
        4    0.00000   -2.51299    2.93780    0.00000    0.00000
        5   -0.00000    0.73330   -0.34684    0.00000   -0.00000
        6   -0.12339    0.00000   -0.00000    0.00071    0.00196
        7    0.05332    0.00000   -0.00000   -0.00196    0.00071
        8    0.00000   -0.15606   -0.12438   -0.00000    0.00000
        9   -0.96688    0.00000   -0.00000   -0.01967   -0.05425
       10    0.41780    0.00000   -0.00000    0.05425   -0.01967
       11    0.00000   -1.14784   -0.81703   -0.00000    0.00000
       12    2.26468   -0.00000    0.00000    0.08458    0.23325
       13   -0.97860   -0.00000    0.00000   -0.23325    0.08458
       14   -0.00000    1.56027    0.93701    0.00000   -0.00000
       15   -0.54938    0.00000   -0.00000   -0.02115   -0.05831
       16    0.23740    0.00000   -0.00000    0.05831   -0.02115
       17    0.00000   -0.25381   -0.23330    0.00000   -0.00000
       18    0.00000   -0.00000    0.00000   -0.00000   -0.00000
       19   -0.04214    0.00000    0.00000   -0.77717    0.28182
       20   -0.00000    0.10820    0.18909    0.00000    0.00000
       21    0.09751    0.00000    0.00000    0.28182    0.77717
       22   -0.00000   -0.00000    0.00000    0.00000    0.00000
       23    0.00000    0.00000   -0.00000    0.00000    0.00000
       24   -0.39884   -0.00000   -0.00000    0.69477   -0.25194
       25    0.00000    0.43034    0.25325    0.00000   -0.00000
       26    0.92300   -0.00000   -0.00000   -0.25194   -0.69477
       27    0.00000    0.00000   -0.00000   -0.00000   -0.00000
       28    0.00000    0.07945   -0.15102   -0.00000    0.00000
       29    0.00000    0.55297   -1.06116   -0.00000    0.00000
       30    0.00000    1.42224   -2.68569   -0.00000    0.00000
       31   -0.00000   -2.51299    2.93780    0.00000    0.00000
       32    0.00000    0.73330   -0.34684   -0.00000   -0.00000
       33    0.12339   -0.00000    0.00000    0.00071    0.00196
       34   -0.05332   -0.00000   -0.00000   -0.00196    0.00071
       35    0.00000    0.15606    0.12438    0.00000   -0.00000
       36    0.96688   -0.00000    0.00000   -0.01967   -0.05425
       37   -0.41780   -0.00000   -0.00000    0.05425   -0.01967
       38    0.00000    1.14784    0.81703    0.00000   -0.00000
       39   -2.26468    0.00000   -0.00000    0.08458    0.23325
       40    0.97860    0.00000    0.00000   -0.23325    0.08458
       41   -0.00000   -1.56027   -0.93701    0.00000    0.00000
       42    0.54938   -0.00000    0.00000   -0.02115   -0.05831
       43   -0.23740   -0.00000   -0.00000    0.05831   -0.02115
       44   -0.00000    0.25381    0.23330    0.00000    0.00000
       45    0.00000    0.00000    0.00000   -0.00000    0.00000
       46   -0.04214   -0.00000   -0.00000    0.77717   -0.28182
       47   -0.00000    0.10820    0.18909   -0.00000    0.00000
       48    0.09751   -0.00000   -0.00000   -0.28182   -0.77717
       49    0.00000    0.00000    0.00000    0.00000   -0.00000
       50   -0.00000    0.00000   -0.00000    0.00000   -0.00000
       51   -0.39884   -0.00000    0.00000   -0.69477    0.25194
       52   -0.00000    0.43034    0.25325   -0.00000   -0.00000
       53    0.92300    0.00000    0.00000    0.25194    0.69477
       54   -0.00000    0.00000   -0.00000   -0.00000    0.00000
--------- ---------- ---------- ---------- ---------- ----------
Occ. No.     0.00000    0.00000    0.00000    0.00000    0.00000
Orb. Ene.    1.24454    1.26558    1.26561    1.35929    1.35931
--------- ---------- ---------- ---------- ---------- ----------
        1    0.03652    0.00000    0.00000   -0.00000    0.00000
        2    0.25186    0.00000    0.00000   -0.00000    0.00000
        3    0.52729    0.00000    0.00000   -0.00000    0.00000
        4    0.29770   -0.00000   -0.00000   -0.00000   -0.00000
        5   -0.27875   -0.00000   -0.00000   -0.00000   -0.00000
        6   -0.00000    0.00000   -0.00000   -0.00000    0.00000
        7   -0.00000   -0.00000   -0.00000    0.00000    0.00000
        8    0.09001    0.00000    0.00000    0.00000    0.00000
        9    0.00000    0.00000    0.00000    0.00000    0.00000
       10    0.00000   -0.00000   -0.00000    0.00000    0.00000
       11    0.34758    0.00000    0.00000    0.00000    0.00000
       12   -0.00000    0.00000   -0.00000   -0.00000   -0.00000
       13   -0.00000    0.00000   -0.00000   -0.00000   -0.00000
       14   -0.49720   -0.00000   -0.00000   -0.00000   -0.00000
       15    0.00000    0.00000    0.00000    0.00000    0.00000
       16    0.00000   -0.00000   -0.00000    0.00000    0.00000
       17   -0.41276   -0.00000   -0.00000   -0.00000   -0.00000
       18    0.00000    0.85028    0.00000    0.00000   -0.87170
       19   -0.00000    0.00000   -0.00000   -0.00000   -0.00000
       20    0.77220   -0.00000    0.00000   -0.00000    0.00000
       21   -0.00000    0.00000   -0.00000   -0.00000   -0.00000
       22   -0.00000   -0.00000    0.85028    0.87170    0.00000
       23   -0.00000   -0.57488   -0.00000   -0.00000    0.82863
       24    0.00000   -0.00000    0.00000    0.00000    0.00000
       25   -1.30798   -0.00000   -0.00000   -0.00000   -0.00000
       26    0.00000   -0.00000    0.00000    0.00000    0.00000
       27    0.00000    0.00000   -0.57490   -0.82864   -0.00000
       28    0.03652    0.00000    0.00000   -0.00000   -0.00000
       29    0.25186    0.00000    0.00000   -0.00000   -0.00000
       30    0.52729    0.00000    0.00000    0.00000   -0.00000
       31    0.29770   -0.00000   -0.00000    0.00000    0.00000
       32   -0.27875    0.00000    0.00000    0.00000    0.00000
       33    0.00000   -0.00000   -0.00000    0.00000    0.00000
       34   -0.00000   -0.00000    0.00000   -0.00000   -0.00000
       35   -0.09001    0.00000   -0.00000    0.00000    0.00000
       36    0.00000   -0.00000   -0.00000    0.00000    0.00000
       37    0.00000   -0.00000    0.00000    0.00000   -0.00000
       38   -0.34758    0.00000   -0.00000    0.00000    0.00000
       39   -0.00000    0.00000   -0.00000   -0.00000   -0.00000
       40   -0.00000    0.00000   -0.00000   -0.00000    0.00000
       41    0.49720   -0.00000    0.00000   -0.00000   -0.00000
       42    0.00000   -0.00000    0.00000    0.00000   -0.00000
       43    0.00000   -0.00000    0.00000    0.00000   -0.00000
       44    0.41276   -0.00000    0.00000   -0.00000   -0.00000
       45    0.00000    0.85028    0.00000   -0.00000    0.87170
       46    0.00000    0.00000    0.00000    0.00000    0.00000
       47    0.77220   -0.00000    0.00000    0.00000   -0.00000
       48    0.00000   -0.00000    0.00000    0.00000    0.00000
       49   -0.00000   -0.00000    0.85028   -0.87170   -0.00000
       50   -0.00000   -0.57488   -0.00000    0.00000   -0.82863
       51   -0.00000    0.00000   -0.00000   -0.00000   -0.00000
       52   -1.30798    0.00000   -0.00000    0.00000    0.00000
       53   -0.00000    0.00000   -0.00000   -0.00000   -0.00000
       54    0.00000    0.00000   -0.57490    0.82864    0.00000
---------  ----------  ----------  ----------  ---------- 
Occ. No.      0.00000     0.00000     0.00000     0.00000 
Orb. Ene.     1.49892     1.49892     1.68866     2.12024 
---------  ----------  ----------  ----------  ---------- 
        1     0.00000     0.00000     0.01292     0.36879 
        2     0.00000     0.00000     0.08309     2.50151 
        3     0.00000     0.00000     0.10570     5.36839 
        4    -0.00000    -0.00000     0.44349   -12.61199 
        5     0.00000    -0.00000     2.75221    -4.72985 
        6    -0.01084     0.00508     0.00000    -0.00000 
        7     0.00508     0.01084     0.00000    -0.00000 
        8     0.00000    -0.00000    -0.03443    -0.03257 
        9    -0.07710     0.03616     0.00000    -0.00000 
       10     0.03616     0.07710     0.00000    -0.00000 
       11     0.00000    -0.00000    -0.44774    -0.29820 
       12     0.80798    -0.37892    -0.00000     0.00000 
       13    -0.37892    -0.80798    -0.00000     0.00000 
       14    -0.00000    -0.00000     1.40698    -7.09184 
       15     0.22099    -0.10364     0.00000    -0.00000 
       16    -0.10364    -0.22099     0.00000    -0.00000 
       17     0.00000    -0.00000     0.71233    -0.75421 
       18    -0.00000     0.00000    -0.00000     0.00000 
       19     0.39739     0.84736     0.00000     0.00000 
       20     0.00000     0.00000    -1.07646     0.01892 
       21    -0.84736     0.39739     0.00000    -0.00000 
       22     0.00000    -0.00000    -0.00000     0.00000 
       23     0.00000    -0.00000     0.00000    -0.00000 
       24    -0.59451    -1.26768    -0.00000     0.00000 
       25    -0.00000    -0.00000     0.97884    -2.59453 
       26     1.26768    -0.59451    -0.00000     0.00000 
       27    -0.00000     0.00000     0.00000    -0.00000 
       28    -0.00000    -0.00000    -0.01292    -0.36879 
       29    -0.00000    -0.00000    -0.08309    -2.50151 
       30    -0.00000    -0.00000    -0.10570    -5.36839 
       31     0.00000     0.00000    -0.44349    12.61199 
       32    -0.00000     0.00000    -2.75221     4.72985 
       33     0.01084    -0.00508    -0.00000     0.00000 
       34    -0.00508    -0.01084    -0.00000     0.00000 
       35    -0.00000     0.00000    -0.03443    -0.03257 
       36     0.07710    -0.03616    -0.00000     0.00000 
       37    -0.03616    -0.07710    -0.00000     0.00000 
       38    -0.00000     0.00000    -0.44774    -0.29820 
       39    -0.80798     0.37892     0.00000    -0.00000 
       40     0.37892     0.80798     0.00000    -0.00000 
       41     0.00000    -0.00000     1.40698    -7.09184 
       42    -0.22099     0.10364    -0.00000     0.00000 
       43     0.10364     0.22099    -0.00000     0.00000 
       44     0.00000    -0.00000     0.71233    -0.75421 
       45    -0.00000    -0.00000     0.00000     0.00000 
       46     0.39739     0.84736     0.00000    -0.00000 
       47     0.00000    -0.00000     1.07646    -0.01892 
       48    -0.84736     0.39739     0.00000     0.00000 
       49    -0.00000     0.00000    -0.00000    -0.00000 
       50     0.00000     0.00000    -0.00000     0.00000 
       51    -0.59451    -1.26768    -0.00000     0.00000 
       52    -0.00000     0.00000    -0.97884     2.59453 
       53     1.26768    -0.59451    -0.00000     0.00000 
       54     0.00000    -0.00000     0.00000     0.00000 

Final Energies
--------------
Component                 Value

E_nn           107.158392898623
T_s           1055.541702268298 
E_ne         -2723.800419172196 
E_J            568.752267149092 
E_X             -0.000000000000 
E_XC           -62.167666291457
E_el         -1161.674116046263
E_dsp            0.000000000000
E_tot        -1054.515723147641

Plotting Grid
-------------
Plotting Grid Generator:
['DFT']

DFT Quadrature Grid Generation
------------------------------
 Radial Grid Type:          LMG
Angular Grid Type:      LEBEDEV
     Grid Pruning:         True
 Total GridPoints:       203086
  Number Screened:        19162
     Time Elapsed:      1.4751s

Execution Summary
-----------------
Calculation Ended on: Tue, 04 Jun 2019 17:04:04
Total Execution Time:       190.90 sec.
