----------------------------------------------------------------------------
|                                                                          |
|      QUEST - QUantum Electronic         .-------.                        |
|              Structure Techniques     .///////////-                      |
|                                      ://////////////-                    |
|      (c) Teale Group, University     `//////////////: .::::-----`        |
|          of Nottingham, UK             .///////////- -:::::::::::-`      |
|            ````````                      ---------. :::::::::::::::-.    |
|          .+ooooooooo+.                  /NMMMMNNNNm/`-::::::::::::::.    |
|        -+oooooooooooo+-               `sMMMMMMMMMMMMm:`-:::::::::::-     |
|      -+oooooooooooooooo/             -mMMMMMMMMMMMMMMMd:`--------:-      |
|     `+ooooooooooooooooo:`.:::::::::-`:mMMMMMMMMMMMMMMMMh                 |
|      `+oooooooooooooo+.`:////////////-`sMMMMMMMMMMMMMMy                  |
|       `+ooooooooooo+- -///////////////:`:mMMMMMMMMMMMy                   |
|        `:::::::::::`.///////////////////-`+sssssssss+                    |
|                     `///////////////////.                                |
|                      `/////////////////`                                 |
|                        ://///////////:                                   |
|                         :///////////-                                    |
|      All rights reserved.                                    ver 2019.4  |
----------------------------------------------------------------------------

Data Files
----------
Input method file: Rscan.inp
Input molecule file: Ar.mol
Input basis file: DZ.bas
Output file: Ar_DZ.out


Machine
-------
Machine Type: x86_64
64 bit: True
Machine Name: cypress01-115
Processor: x86_64
Number of Cores: 20

Operating System
----------------
OS System: Linux
OS Release: 2.6.32-431.23.3.el6.x86_64

Python
------
Python Compiler: GCC 7.2.0
Python Build: default May  1 2018 23:32:55
Python Implementation: CPython
Python Version: 2.7.15

Package Versions
----------------
Numpy Version No.  : 1.15.1
Scipy Version No.  : 1.1.0
Numba Version No.  : 0.39.0+0.g4e49566.dirty
H5py Version No.  : 2.8.0
Platform Version No.  : 1.0.7
Multiprocessing Version No.  : 0.70a1
 
Calculation Started on: Tue, 04 Jun 2019 17:20:23
 

Method Input
------------
@QUEST
mkl threads = 4 
method = kohn-sham
spin constraint = restricted
@INTEGRALS
one elec integrals = fast
eri integrals = fast
basis set = spherical
jengine = True
@DFT
xc library = XCfun
hfx frac = 0.0 
mu range sep = 0.0 
functional = 1.0*SCAN_X+1.0*SCAN_c
@SCF
DIIS type = c1-diis 
diis max iter = 50
@Grid
radial grid = LMG 
angular grid = Lebedev
pruning = on  
lmg threshold = 1.0e-15
weight screen threshold = 1.0e-20
lebedev target deg = 53 
lebedev min deg = 41
becke hardness = 3 
becke atomic size corrections = on
plot quantities = rho, grd, tau, lap
plot grid = DFT 


Molecule Input
--------------
charge = 0
multiplicity = 1
units = A
Ar 0.0 0.0 1.0

Number of Atoms:  1
Number of Ghost Centres: 0


Basis Input
-----------
@Basis
type = GTO 
@Orbital Basis
orbital basis = aug-cc-pVDZ 
contraction type = contracted 


Intel MKL Acceleration Detected
-------------------------------
Intel(R) Math Kernel Library Version 2019.0.0 Product Build 20180829 for Intel(R) 64 architecture applications
No. of Physical Cores Used: 4

Molecular Geometry Analysis
---------------------------

*) Symmetry Analysis 
---------------------
 
Molecular Point Group: D2h
 

*) Bond Analysis 
-----------------
 
Bond Lengths (Bohr):
      Atoms                Species          Distance
 
Bond Angles (Degrees):
      Atoms                Species             Angle
 
Out-Of-Plane Angles (Degrees):
      Atoms                Species             Angle
 
Bond Torsion Angles (Degrees):
      Atoms                Species             Angle

*) Rotational Analysis 
-----------------------
 
Center Of Mass (Bohr):
                  x              y              z
           0.000000       0.000000       1.889726
 
Moment Of Inertia Tensor (Mu*Bohr^2):
                  x              y              z
 x         0.000000       0.000000       0.000000
 y         0.000000       0.000000       0.000000
 z         0.000000       0.000000       0.000000
 
Principle MoIs (Mu*Bohr^2):
                 Ia             Ib             Ic
           0.000000       0.000000       0.000000
 
Rotational Constants:
                  A              B              C
MHz             inf            inf            inf
cm-1            inf            inf            inf
 
Rotational Type:  Spherical Top

Orbital Basis Set 
------------------
Basis Type: Contracted Spherical

Atom    Number    Charge    NPrm    NCnt       Functions
----    ------    ------    ----    ----    ----------------
Ar           1     18.00      50      27    [13s9p2d|5s4p2d]
 

Nuclear-Nuclear Repulsion
-------------------------
E_nn :       0.000000000000

Molecular Integral Evaluation
-----------------------------

ShellPair Evaluation & Screening
--------------------------------
Type            NTot            NSig
 SS             1444            1424
 PS             1368            1360
 PP              324             324
 DS              152             152
 DP               72              72
 DD                4               4
     
No. of Overlap Integrals           :             729
No. of Kinetic Energy Integrals    :             729
No. of Nuclear Attraction Integrals:             729
No. Electron Repulsion Integrals   :          531441
No. Integrals Screened (Schwarz)   :               0
     
ShellPair Calculation Time         :           0.049
One-Electron Integral Time         :           0.145
Two-Electron Integral Time         :           1.079

DFT Quadrature Grid Generation
------------------------------
 Radial Grid Type:          LMG
Angular Grid Type:      LEBEDEV
     Grid Pruning:         True
 Total GridPoints:       101582
  Number Screened:         9542
     Time Elapsed:      0.6531s

SCF Optimization
----------------
Algorithm: C1-DIIS [8]                   
Max. Iterations:    50

No. Electrons:    18.00000

Basis     Iter                   Energy           ||FDS-SDF||    N-DIIS         Time
 (S)         1        -523.800154962282        3.749920974767         1       4.003s
 (S)         2        -522.677939415242        4.941872868893         2       4.026s
 (S)         3        -527.542271831309        0.419084387396         3       4.263s
 (S)         4        -527.568629503629        0.016247587214         4       4.126s
 (S)         5        -527.568662460966        0.005614425889         5       4.029s
 (S)         6        -527.568667369080        0.000245337872         6       4.042s
 (S)         7        -527.568667376373        0.000004466453         7       4.175s
 (S)         8        -527.568667376376        0.000000354093         8       4.175s

------- SCF Converged! -------

Final Molecular Orbitals
------------------------
 
Frontier Eigenvalues: 
 
          HOMO Energy (a.u.):    -0.39565
          LUMO Energy (a.u.):     0.08587
                                ---------
        HOMO-LUMO Gap (a.u.):     0.48153
 
Molecular Orbitals: 
 
-- Occupied and Lowest 5 virtual orbitals
 
--------- ---------- ---------- ---------- ---------- ----------
Occ. No.     2.00000    2.00000    2.00000    2.00000    2.00000
Orb. Ene. -114.76647  -11.06264   -8.59258   -8.59258   -8.59258
--------- ---------- ---------- ---------- ---------- ----------
        1   -0.99995    0.00089   -0.00000   -0.00000    0.00000
        2   -0.00002    1.00885    0.00000   -0.00000    0.00000
        3    0.00127    0.02815   -0.00000    0.00000    0.00000
        4   -0.00108   -0.02900    0.00000    0.00000   -0.00000
        5   -0.00002    0.00563   -0.00000   -0.00000    0.00000
        6    0.00000    0.00000   -0.12221   -0.99309   -0.00135
        7    0.00000   -0.00000    0.99309   -0.12221    0.00259
        8   -0.00000   -0.00000   -0.00274   -0.00102    1.00058
        9    0.00000   -0.00000   -0.00125   -0.01015   -0.00001
       10   -0.00000   -0.00000    0.01015   -0.00125    0.00003
       11   -0.00000    0.00000   -0.00003   -0.00001    0.01022
       12   -0.00000    0.00000    0.00083    0.00674    0.00001
       13    0.00000    0.00000   -0.00674    0.00083   -0.00002
       14    0.00000   -0.00000    0.00002    0.00001   -0.00679
       15    0.00000   -0.00000   -0.00002   -0.00013   -0.00000
       16   -0.00000   -0.00000    0.00013   -0.00002    0.00000
       17   -0.00000    0.00000   -0.00000   -0.00000    0.00013
       18    0.00000    0.00000    0.00000   -0.00000    0.00000
       19   -0.00000   -0.00000    0.00000   -0.00000   -0.00000
       20   -0.00000    0.00000   -0.00000   -0.00000    0.00000
       21    0.00000    0.00000    0.00000   -0.00000    0.00000
       22    0.00000   -0.00000   -0.00000   -0.00000    0.00000
       23   -0.00000   -0.00000   -0.00000   -0.00000   -0.00000
       24    0.00000    0.00000   -0.00000    0.00000   -0.00000
       25   -0.00000    0.00000    0.00000    0.00000   -0.00000
       26   -0.00000   -0.00000   -0.00000    0.00000   -0.00000
       27   -0.00000   -0.00000    0.00000    0.00000   -0.00000
--------- ---------- ---------- ---------- ---------- ----------
Occ. No.     2.00000    2.00000    2.00000    2.00000    0.00000
Orb. Ene.   -0.92558   -0.39565   -0.39565   -0.39565    0.08587
--------- ---------- ---------- ---------- ---------- ----------
        1   -0.00103   -0.00000   -0.00000   -0.00000   -0.00641
        2    0.00049   -0.00000   -0.00000    0.00000   -0.03149
        3   -1.01041   -0.00000    0.00000    0.00000    0.30516
        4    0.02113    0.00000    0.00000    0.00000    0.76312
        5   -0.01332    0.00000    0.00000   -0.00000   -1.52001
        6    0.00000    0.00002   -0.00006   -0.00281    0.00000
        7   -0.00000    0.00043   -0.00278    0.00006   -0.00000
        8    0.00000   -0.00278   -0.00043   -0.00001   -0.00000
        9    0.00000   -0.00655    0.02083    1.01021    0.00000
       10    0.00000   -0.15416    0.99839   -0.02159   -0.00000
       11    0.00000    0.99860    0.15426    0.00330   -0.00000
       12   -0.00000    0.00016   -0.00052   -0.02541   -0.00000
       13   -0.00000    0.00388   -0.02511    0.00054   -0.00000
       14    0.00000   -0.02511   -0.00388   -0.00008    0.00000
       15    0.00000   -0.00017    0.00055    0.02646    0.00000
       16   -0.00000   -0.00404    0.02615   -0.00057    0.00000
       17   -0.00000    0.02616    0.00404    0.00009    0.00000
       18   -0.00000    0.00000    0.00000   -0.00000    0.00000
       19    0.00000   -0.00000    0.00000    0.00000   -0.00000
       20   -0.00000   -0.00000    0.00000   -0.00000    0.00000
       21   -0.00000    0.00000    0.00000    0.00000    0.00000
       22    0.00000   -0.00000    0.00000    0.00000   -0.00000
       23    0.00000   -0.00000   -0.00000   -0.00000    0.00000
       24   -0.00000   -0.00000   -0.00000    0.00000   -0.00000
       25    0.00000    0.00000    0.00000   -0.00000   -0.00000
       26    0.00000   -0.00000   -0.00000    0.00000    0.00000
       27   -0.00000    0.00000    0.00000   -0.00000   -0.00000
--------- ---------- ---------- ---------- ---------- ----------
Occ. No.     0.00000    0.00000    0.00000    0.00000    0.00000
Orb. Ene.    0.11265    0.11265    0.11265    0.36336    0.36336
--------- ---------- ---------- ---------- ---------- ----------
        1    0.00000   -0.00000    0.00000    0.00000    0.00000
        2    0.00000   -0.00000   -0.00000    0.00000    0.00000
        3   -0.00000   -0.00000    0.00000    0.00000    0.00000
        4   -0.00000   -0.00000    0.00000    0.00000   -0.00000
        5    0.00000    0.00000   -0.00000   -0.00000    0.00000
        6   -0.00068    0.00359    0.00136    0.00000    0.00000
        7   -0.00322    0.00022   -0.00220    0.00000    0.00000
        8   -0.00210   -0.00150    0.00292    0.00000   -0.00000
        9   -0.05551    0.29187    0.11040    0.00000    0.00000
       10   -0.26125    0.01785   -0.17856    0.00000   -0.00000
       11   -0.17065   -0.12227    0.23745    0.00000   -0.00000
       12   -0.03801    0.19984    0.07559   -0.00000    0.00000
       13   -0.17887    0.01222   -0.12226   -0.00000   -0.00000
       14   -0.11684   -0.08371    0.16258   -0.00000    0.00000
       15    0.20451   -1.07534   -0.40673    0.00000   -0.00000
       16    0.96254   -0.06578    0.65788    0.00000    0.00000
       17    0.62874    0.45048   -0.87486   -0.00000    0.00000
       18    0.00000   -0.00000   -0.00000    0.09409    0.04370
       19    0.00000   -0.00000   -0.00000    0.04108   -0.00710
       20   -0.00000    0.00000   -0.00000    0.02705    0.22573
       21   -0.00000   -0.00000    0.00000   -0.23369    0.04250
       22   -0.00000    0.00000   -0.00000   -0.00005   -0.10567
       23   -0.00000    0.00000    0.00000    0.30299    0.14072
       24   -0.00000    0.00000   -0.00000    0.13230   -0.02287
       25    0.00000   -0.00000    0.00000    0.08712    0.72687
       26   -0.00000    0.00000    0.00000   -0.75252    0.13686
       27    0.00000   -0.00000    0.00000   -0.00017   -0.34026
--------- ---------- ---------- ---------- ---------- ----------
Occ. No.     0.00000    0.00000    0.00000    0.00000    0.00000
Orb. Ene.    0.36336    0.36336    0.36336    0.77548    0.77548
--------- ---------- ---------- ---------- ---------- ----------
        1   -0.00000   -0.00000   -0.00000    0.00000   -0.00000
        2   -0.00000   -0.00000   -0.00000    0.00000   -0.00000
        3   -0.00000   -0.00000   -0.00000    0.00000   -0.00000
        4   -0.00000    0.00000   -0.00000   -0.00000   -0.00000
        5    0.00000    0.00000    0.00000    0.00000    0.00000
        6   -0.00000    0.00000   -0.00000    0.02417    0.07861
        7   -0.00000    0.00000    0.00000   -0.04938   -0.16763
        8    0.00000    0.00000   -0.00000    0.18514   -0.05497
        9   -0.00000    0.00000   -0.00000    0.21655    0.70433
       10   -0.00000    0.00000    0.00000   -0.44242   -1.50196
       11    0.00000    0.00000    0.00000    1.65889   -0.49251
       12    0.00000   -0.00000    0.00000   -0.29873   -0.97164
       13    0.00000   -0.00000   -0.00000    0.61032    2.07197
       14   -0.00000   -0.00000   -0.00000   -2.28845    0.67942
       15   -0.00000    0.00000   -0.00000    0.08812    0.28661
       16    0.00000   -0.00000    0.00000   -0.18003   -0.61119
       17    0.00000    0.00000    0.00000    0.67504   -0.20042
       18   -0.00016    0.23477   -0.00249   -0.00000    0.00000
       19    0.25279   -0.01502   -0.00427   -0.00000    0.00000
       20   -0.00306   -0.05399   -0.10619    0.00000   -0.00000
       21    0.04403    0.08563   -0.01400   -0.00000    0.00000
       22   -0.00588    0.01721   -0.23321    0.00000   -0.00000
       23   -0.00052    0.75598   -0.00803    0.00000   -0.00000
       24    0.81401   -0.04836   -0.01375    0.00000   -0.00000
       25   -0.00984   -0.17385   -0.34194   -0.00000    0.00000
       26    0.14177    0.27574   -0.04507    0.00000   -0.00000
       27   -0.01893    0.05542   -0.75098   -0.00000    0.00000
--------- ---------- ---------- ---------- ---------- ----------
Occ. No.     0.00000    0.00000    0.00000    0.00000    0.00000
Orb. Ene.    0.77548    1.10840    1.34721    1.34721    1.34721
--------- ---------- ---------- ---------- ---------- ----------
        1    0.00000   -0.23604    0.00000   -0.00000   -0.00000
        2    0.00000   -1.64834    0.00000   -0.00000   -0.00000
        3   -0.00000   -4.16863    0.00000    0.00000   -0.00000
        4   -0.00000    5.45480    0.00000    0.00000   -0.00000
        5   -0.00000   -1.17212   -0.00000   -0.00000    0.00000
        6   -0.17475    0.00000   -0.00000    0.00000    0.00000
        7   -0.08224   -0.00000    0.00000   -0.00000    0.00000
        8    0.00088    0.00000    0.00000   -0.00000    0.00000
        9   -1.56574    0.00000   -0.00000    0.00000    0.00000
       10   -0.73683   -0.00000    0.00000   -0.00000    0.00000
       11    0.00788    0.00000    0.00000   -0.00000    0.00000
       12    2.15996   -0.00000    0.00000   -0.00000   -0.00000
       13    1.01647    0.00000   -0.00000    0.00000   -0.00000
       14   -0.01087   -0.00000   -0.00000    0.00000   -0.00000
       15   -0.63714    0.00000   -0.00000    0.00000    0.00000
       16   -0.29984   -0.00000    0.00000   -0.00000    0.00000
       17    0.00321    0.00000    0.00000   -0.00000    0.00000
       18    0.00000    0.00000   -0.13622   -0.11468    1.19838
       19   -0.00000    0.00000    0.67362   -0.94292   -0.03245
       20   -0.00000   -0.00000   -0.05015    0.23812   -0.00862
       21   -0.00000    0.00000   -0.99752   -0.64726   -0.18362
       22   -0.00000    0.00000   -0.04617    0.30679   -0.03247
       23   -0.00000    0.00000    0.10380    0.08739   -0.91317
       24   -0.00000   -0.00000   -0.51330    0.71851    0.02473
       25    0.00000    0.00000    0.03821   -0.18145    0.00657
       26   -0.00000    0.00000    0.76012    0.49321    0.13992
       27    0.00000   -0.00000    0.03518   -0.23378    0.02474
---------  ----------  ---------- 
Occ. No.      0.00000     0.00000 
Orb. Ene.     1.34721     1.34721 
---------  ----------  ---------- 
        1    -0.00000    -0.00000 
        2    -0.00000    -0.00000 
        3    -0.00000    -0.00000 
        4     0.00000    -0.00000 
        5    -0.00000     0.00000 
        6    -0.00000    -0.00000 
        7     0.00000    -0.00000 
        8    -0.00000     0.00000 
        9    -0.00000    -0.00000 
       10     0.00000    -0.00000 
       11    -0.00000     0.00000 
       12     0.00000     0.00000 
       13    -0.00000     0.00000 
       14     0.00000    -0.00000 
       15    -0.00000    -0.00000 
       16     0.00000    -0.00000 
       17    -0.00000     0.00000 
       18    -0.01566     0.06282 
       19    -0.00162     0.35791 
       20     0.94170     0.72521 
       21    -0.01090     0.15552 
       22    -0.76475     0.88874 
       23     0.01193    -0.04787 
       24     0.00124    -0.27273 
       25    -0.71758    -0.55261 
       26     0.00831    -0.11851 
       27     0.58275    -0.67723 

Final Energies
--------------
Component                 Value

E_nn             0.000000000000
T_s            526.457430504986 
E_ne         -1254.626002158336 
E_J            231.533558081321 
E_X             -0.000000000000 
E_XC           -30.933653804347
E_el          -527.568667376376
E_dsp            0.000000000000
E_tot         -527.568667376376

Plotting Grid
-------------
Plotting Grid Generator:
['DFT']

DFT Quadrature Grid Generation
------------------------------
 Radial Grid Type:          LMG
Angular Grid Type:      LEBEDEV
     Grid Pruning:         True
 Total GridPoints:       101582
  Number Screened:         9542
     Time Elapsed:      0.6655s

Execution Summary
-----------------
Calculation Ended on: Tue, 04 Jun 2019 17:21:04
Total Execution Time:        40.49 sec.
