----------------------------------------------------------------------------
|                                                                          |
|      QUEST - QUantum Electronic         .-------.                        |
|              Structure Techniques     .///////////-                      |
|                                      ://////////////-                    |
|      (c) Teale Group, University     `//////////////: .::::-----`        |
|          of Nottingham, UK             .///////////- -:::::::::::-`      |
|            ````````                      ---------. :::::::::::::::-.    |
|          .+ooooooooo+.                  /NMMMMNNNNm/`-::::::::::::::.    |
|        -+oooooooooooo+-               `sMMMMMMMMMMMMm:`-:::::::::::-     |
|      -+oooooooooooooooo/             -mMMMMMMMMMMMMMMMd:`--------:-      |
|     `+ooooooooooooooooo:`.:::::::::-`:mMMMMMMMMMMMMMMMMh                 |
|      `+oooooooooooooo+.`:////////////-`sMMMMMMMMMMMMMMy                  |
|       `+ooooooooooo+- -///////////////:`:mMMMMMMMMMMMy                   |
|        `:::::::::::`.///////////////////-`+sssssssss+                    |
|                     `///////////////////.                                |
|                      `/////////////////`                                 |
|                        ://///////////:                                   |
|                         :///////////-                                    |
|      All rights reserved.                                    ver 2019.4  |
----------------------------------------------------------------------------

Data Files
----------
Input method file: Rscan.inp
Input molecule file: H2O.mol
Input basis file: 6311.bas
Output file: H2O.Rscan.out


Machine
-------
Machine Type: x86_64
64 bit: True
Machine Name: Cuttlebrook.local
Processor: i386
Number of Cores: 4

Operating System
----------------
OS System: Darwin
OS Release: 18.5.0

Python
------
Python Compiler: GCC 4.2.1 Compatible Apple LLVM 6.0 (clang-600.0.57)
Python Build: default Jun 11 2016 03:41:56
Python Implementation: CPython
Python Version: 2.7.11

Package Versions
----------------
Numpy Version No.  : 1.15.4
Scipy Version No.  : 1.1.0
Numba Version No.  : 0.36.2
H5py Version No.  : 2.9.0
Platform Version No.  : 1.0.7
Multiprocessing Version No.  : 0.70a1
 
Calculation Started on: Mon, 20 May 2019 01:15:42
 

Method Input
------------
@QUEST
mkl threads = 4 
method = kohn-sham
spin constraint = restricted
@INTEGRALS
one elec integrals = fast
eri integrals = fast
basis set = spherical
direct = true 
ri = true
@DFT
xc library = XCfun
hfx frac = 0.0 
mu range sep = 0.0 
functional = 1.0*SCAN_X+1.0*SCAN_c
@SCF
DIIS type = c1-diis 
diis max iter = 50
@Grid
radial grid = LMG 
angular grid = Lebedev
pruning = on  
lmg threshold = 1.0e-15
weight screen threshold = 1.0e-20
lebedev target deg = 53 
lebedev min deg = 41
becke hardness = 3 
becke atomic size corrections = on
plot quantities = rho, grd, tau, lap
plot grid = DFT 


Molecule Input
--------------
charge = 0
multiplicity = 1 
units = A
O 0.0 0.0 0.1171456350
H 0.0 0.7567115246 -0.4685846566
H 0.0 -0.7567115246 -0.4685846566

Number of Atoms:  3
Number of Ghost Centres: 0


Basis Input
-----------
@Basis
type = GTO 
@Orbital Basis
orbital basis = 6-311++G(3df,3pd) 
contraction type = contracted 
@ri basis
ri basis = aug-cc-pVQZ-RI
contraction type = primitive


Intel MKL Acceleration Detected
-------------------------------
Intel(R) Math Kernel Library Version 2018.0.3 Product Build 20180406 for Intel(R) 64 architecture applications
No. of Physical Cores Used: 2

Molecular Geometry Analysis
---------------------------

*) Symmetry Analysis 
---------------------
 
Molecular Point Group: C2v
 

*) Bond Analysis 
-----------------
 
Bond Lengths (Bohr):
      Atoms                Species          Distance
      1 -  0               H  - O              1.808
      2 -  0               H  - O              1.808
 
Bond Angles (Degrees):
      Atoms                Species             Angle
    1 -  0 -  2          H  - O  - H         104.517
 
Out-Of-Plane Angles (Degrees):
      Atoms                Species             Angle
 
Bond Torsion Angles (Degrees):
      Atoms                Species             Angle

*) Rotational Analysis 
-----------------------
 
Center Of Mass (Bohr):
                  x              y              z
           0.000000       0.000000       0.097516
 
Moment Of Inertia Tensor (Mu*Bohr^2):
                  x              y              z
 x         6.315560       0.000000       0.000000
 y         0.000000       2.193414       0.000000
 z         0.000000       0.000000       4.122146
 
Principle MoIs (Mu*Bohr^2):
                 Ia             Ib             Ic
           2.193414       4.122146       6.315560
 
Rotational Constants:
                  A              B              C
MHz   822799.781923  437815.869082  285761.009960
cm-1      27.445688      14.603988       9.531976
 
Rotational Type:  Asymmetric Top

Orbital Basis Set 
------------------
Basis Type: Contracted Spherical

Atom    Number    Charge    NPrm    NCnt         Functions
----    ------    ------    ----    ----    --------------------
H            2      1.00      40      36      [12s6p2d|8s6p2d]  
O            1      8.00      52      39    [12s6p3d1f|5s4p3d1f]

Auxilliary Basis Set 
---------------------
Basis Type:  Primitive Spherical

Atom    Number    Charge    NPrm    NCnt             Functions
----    ------    ------    ----    ----    ---------------------------
H            2      1.00     160     160    [12s10p8d6f4g|12s10p8d6f4g]
O            1      8.00     168     168    [9s8p7d6f4g2h|9s8p7d6f4g2h]
 

Nuclear-Nuclear Repulsion
-------------------------
E_nn :       9.197681339814

Molecular Integral Evaluation
-----------------------------

ShellPair Evaluation & Screening
--------------------------------
Type            NTot            NSig
 SS              576             532
 PS              576             564
 PP              144             144
 DS              240             240
 DP              120             120
 DD               25              25
 FS               48              48
 FP               24              24
 FD               10              10
 FF                1               1
     
No. of Overlap Integrals           :            5625
No. of Kinetic Energy Integrals    :            5625
No. of Nuclear Attraction Integrals:           16875
     
Electron Repulsion Integral Direct Calculation!
     
ShellPair Calculation Time         :           0.191
One-Electron Integral Time         :           0.657
Two-Electron Integral Time         :           0.000

DFT Quadrature Grid Generation
------------------------------
 Radial Grid Type:          LMG
Angular Grid Type:      LEBEDEV
     Grid Pruning:         True
 Total GridPoints:       281966
  Number Screened:          616
     Time Elapsed:      1.8567s

SCF Optimization
----------------
Algorithm: C1-DIIS [8]                   
Max. Iterations:    50

No. Electrons:    10.00000

Basis     Iter                   Energy           ||FDS-SDF||    N-DIIS         Time
 (S)         1         -61.915838113374       16.910468270322         1      18.959s
 (S)         2         -63.959748600980        5.820955466134         2      18.719s
 (S)         3         -72.651145497124        7.362221246439         3      18.667s
 (S)         4         -75.554172211675        3.217715924568         4      18.942s
 (S)         5         -76.342669865671        0.999692390948         5      18.723s
 (S)         6         -76.429804860701        0.089147390757         6      18.708s
 (S)         7         -76.430355979622        0.041360757270         7      18.651s
 (S)         8         -76.430508761934        0.002550571744         8      18.855s
 (S)         9         -76.430509424038        0.000342145887         8      18.661s
 (S)        10         -76.430509435164        0.000015373129         8      18.612s
 (S)        11         -76.430509435183        0.000002577674         8      18.746s
 (S)        12         -76.430509435183        0.000000451335         8      18.605s

------- SCF Converged! -------

Final Molecular Orbitals
------------------------
 
Frontier Eigenvalues: 
 
          HOMO Energy (a.u.):    -0.28035
          LUMO Energy (a.u.):    -0.00443
                                ---------
        HOMO-LUMO Gap (a.u.):     0.27592
 
Molecular Orbitals: 
 
-- Occupied and Lowest 5 virtual orbitals
 
--------- ---------- ---------- ---------- ---------- ----------
Occ. No.     2.00000    2.00000    2.00000    2.00000    2.00000
Orb. Ene.  -18.94776   -0.98415   -0.50190   -0.35793   -0.28035
--------- ---------- ---------- ---------- ---------- ----------
        1   -0.55192   -0.11624    0.00000    0.04357    0.00000
        2   -0.46867   -0.18714   -0.00000    0.07162    0.00000
        3   -0.01666    0.53570    0.00000   -0.21705   -0.00000
        4    0.00485    0.48399    0.00000   -0.36167   -0.00000
        5    0.00399    0.08475    0.00000   -0.14354   -0.00000
        6    0.00000    0.00000    0.00000    0.00000   -0.29574
        7   -0.00000    0.00000   -0.24011    0.00000   -0.00000
        8    0.00090   -0.05200    0.00000   -0.25886   -0.00000
        9   -0.00000    0.00000    0.00000    0.00000   -0.43186
       10   -0.00000    0.00000   -0.35328   -0.00000   -0.00000
       11    0.00305   -0.08738   -0.00000   -0.37149    0.00000
       12    0.00000    0.00000    0.00000    0.00000   -0.39004
       13   -0.00000    0.00000   -0.24610   -0.00000    0.00000
       14   -0.00054   -0.07419   -0.00000   -0.26906    0.00000
       15    0.00000   -0.00000    0.00000    0.00000   -0.09145
       16   -0.00000    0.00000   -0.01582   -0.00000    0.00000
       17   -0.00135   -0.01901   -0.00000   -0.02987    0.00000
       18    0.00000   -0.00000   -0.00000   -0.00000    0.00000
       19    0.00000    0.00000    0.00283   -0.00000   -0.00000
       20   -0.00001    0.00013   -0.00000    0.00145   -0.00000
       21   -0.00000   -0.00000   -0.00000    0.00000    0.00145
       22   -0.00029   -0.00017    0.00000   -0.00096    0.00000
       23   -0.00000   -0.00000    0.00000   -0.00000    0.00000
       24    0.00000   -0.00000    0.02142    0.00000   -0.00000
       25    0.00000    0.00298   -0.00000    0.00991   -0.00000
       26    0.00000   -0.00000   -0.00000    0.00000    0.01022
       27    0.00150   -0.01082    0.00000   -0.00116   -0.00000
       28    0.00000   -0.00000   -0.00000    0.00000    0.00000
       29    0.00000   -0.00000    0.01703    0.00000   -0.00000
       30    0.00029    0.00414   -0.00000    0.01518   -0.00000
       31   -0.00000    0.00000    0.00000   -0.00000    0.02085
       32   -0.00010   -0.01150   -0.00000    0.00651    0.00000
       33    0.00000   -0.00000    0.00310   -0.00000    0.00000
       34   -0.00000    0.00000   -0.00000   -0.00000   -0.00000
       35   -0.00000    0.00000   -0.00140   -0.00000    0.00000
       36   -0.00033    0.00125    0.00000   -0.00011   -0.00000
       37   -0.00000    0.00000   -0.00000    0.00000   -0.00111
       38   -0.00045    0.00348   -0.00000    0.00192    0.00000
       39    0.00000   -0.00000    0.00000    0.00000    0.00242
       40    0.00026    0.09703   -0.15154    0.08763    0.00000
       41    0.00258    0.02901   -0.17012    0.15882    0.00000
       42   -0.00442   -0.06064   -0.03529    0.09561    0.00000
       43    0.00047    0.00416   -0.01196    0.00322   -0.00000
       44   -0.00000    0.00000   -0.00000    0.00000   -0.00375
       45    0.00008   -0.00428    0.00222   -0.00226    0.00000
       46   -0.00013    0.00271   -0.00365   -0.00150   -0.00000
       47    0.00000   -0.00000    0.00000   -0.00000   -0.02589
       48   -0.00241   -0.00949    0.00722   -0.02271   -0.00000
       49    0.00219    0.00533   -0.01731   -0.00661    0.00000
       50   -0.00000    0.00000   -0.00000   -0.00000   -0.01780
       51    0.00094    0.02121   -0.00466   -0.02193   -0.00000
       52   -0.00065   -0.01716    0.00583   -0.00227    0.00000
       53   -0.00000    0.00000   -0.00000    0.00000    0.00626
       54   -0.00163    0.00109    0.00064    0.00036   -0.00000
       55    0.00021   -0.00062   -0.00245   -0.00427   -0.00000
       56    0.00000   -0.00000    0.00000    0.00000   -0.00446
       57   -0.00086    0.00017   -0.00107   -0.00452   -0.00000
       58    0.00026    0.09703    0.15154    0.08763    0.00000
       59    0.00258    0.02901    0.17012    0.15882    0.00000
       60   -0.00442   -0.06064    0.03529    0.09561    0.00000
       61    0.00047    0.00416    0.01196    0.00322    0.00000
       62   -0.00000    0.00000    0.00000    0.00000   -0.00375
       63   -0.00008    0.00428    0.00222    0.00226   -0.00000
       64   -0.00013    0.00271    0.00365   -0.00150   -0.00000
       65    0.00000   -0.00000   -0.00000   -0.00000   -0.02589
       66    0.00241    0.00949    0.00722    0.02271    0.00000
       67    0.00219    0.00533    0.01731   -0.00661    0.00000
       68   -0.00000    0.00000    0.00000   -0.00000   -0.01780
       69   -0.00094   -0.02121   -0.00466    0.02193    0.00000
       70   -0.00065   -0.01716   -0.00583   -0.00227    0.00000
       71    0.00000   -0.00000   -0.00000   -0.00000   -0.00626
       72    0.00163   -0.00109    0.00064   -0.00036    0.00000
       73    0.00021   -0.00062    0.00245   -0.00427   -0.00000
       74    0.00000   -0.00000    0.00000    0.00000   -0.00446
       75   -0.00086    0.00017    0.00107   -0.00452   -0.00000
--------- ---------- ---------- ---------- ---------- ----------
Occ. No.     0.00000    0.00000    0.00000    0.00000    0.00000
Orb. Ene.   -0.00443    0.04919    0.14796    0.16314    0.18353
--------- ---------- ---------- ---------- ---------- ----------
        1   -0.03263    0.00000    0.03521   -0.00000    0.00000
        2   -0.05472    0.00000    0.05753   -0.00000    0.00000
        3    0.17956   -0.00000   -0.20136    0.00000   -0.00000
        4    0.59105    0.00000   -0.09772   -0.00000   -0.00000
        5    1.18684    0.00000    0.47413   -0.00000   -0.00000
        6    0.00000    0.00000    0.00000    0.00000    0.14218
        7    0.00000    0.08495   -0.00000   -0.14425    0.00000
        8   -0.07714    0.00000    0.12170   -0.00000   -0.00000
        9    0.00000    0.00000    0.00000    0.00000    0.16862
       10    0.00000    0.14901   -0.00000   -0.19104    0.00000
       11   -0.12754   -0.00000    0.15676   -0.00000   -0.00000
       12    0.00000    0.00000    0.00000    0.00000    0.42766
       13    0.00000    0.11960   -0.00000   -0.94082    0.00000
       14   -0.29055   -0.00000   -0.00629    0.00000   -0.00000
       15   -0.00000   -0.00000   -0.00000   -0.00000   -1.27001
       16    0.00000    0.41002   -0.00000   -1.71103    0.00000
       17   -0.18967   -0.00000    0.04154    0.00000    0.00000
       18   -0.00000    0.00000    0.00000    0.00000    0.00000
       19    0.00000    0.00014   -0.00000   -0.00155    0.00000
       20    0.00020    0.00000   -0.00041   -0.00000   -0.00000
       21   -0.00000    0.00000    0.00000   -0.00000    0.00054
       22    0.00069    0.00000   -0.00080   -0.00000   -0.00000
       23   -0.00000    0.00000    0.00000   -0.00000   -0.00000
       24   -0.00000   -0.00258    0.00000   -0.01812    0.00000
       25    0.00331   -0.00000   -0.00347    0.00000    0.00000
       26   -0.00000    0.00000    0.00000   -0.00000   -0.01102
       27   -0.00165   -0.00000   -0.01418    0.00000   -0.00000
       28   -0.00000   -0.00000    0.00000    0.00000    0.00000
       29   -0.00000   -0.01334    0.00000    0.12234   -0.00000
       30    0.01500    0.00000    0.02851   -0.00000    0.00000
       31   -0.00000    0.00000    0.00000   -0.00000    0.03298
       32   -0.03077   -0.00000   -0.09647    0.00000    0.00000
       33   -0.00000   -0.00088    0.00000    0.00387   -0.00000
       34    0.00000   -0.00000   -0.00000    0.00000   -0.00000
       35    0.00000    0.00123   -0.00000   -0.00091    0.00000
       36    0.00092    0.00000    0.00126   -0.00000    0.00000
       37    0.00000   -0.00000   -0.00000    0.00000    0.00086
       38    0.00361    0.00000    0.00558   -0.00000    0.00000
       39   -0.00000    0.00000   -0.00000   -0.00000   -0.00294
       40   -0.02210   -0.00455    0.08207    0.08978    0.00000
       41   -0.26798   -0.11928   -0.20035    0.55429   -0.00000
       42   -0.56993   -0.11734    1.02784    3.84690    0.00000
       43   -0.58767   -2.21263   -0.93728   -1.44354    0.00000
       44   -0.00000    0.00000    0.00000    0.00000    0.00190
       45   -0.00372   -0.00173    0.00194    0.00222   -0.00000
       46    0.00171    0.00106   -0.00111   -0.00471    0.00000
       47   -0.00000   -0.00000    0.00000   -0.00000   -0.01549
       48   -0.00372   -0.00544    0.06232    0.00096    0.00000
       49    0.00206    0.01268   -0.02894   -0.00744   -0.00000
       50   -0.00000    0.00000    0.00000   -0.00000    0.06177
       51    0.08473   -0.03896    0.18069   -0.46209    0.00000
       52   -0.04668   -0.00743   -0.12110    0.23316    0.00000
       53    0.00000    0.00000   -0.00000   -0.00000   -0.00255
       54    0.00343    0.00394    0.00708   -0.00178    0.00000
       55   -0.00180    0.00187    0.00338   -0.00242    0.00000
       56   -0.00000    0.00000    0.00000   -0.00000    0.00072
       57    0.00271    0.00315    0.00944   -0.00008    0.00000
       58   -0.02210    0.00455    0.08207   -0.08978    0.00000
       59   -0.26798    0.11928   -0.20035   -0.55429   -0.00000
       60   -0.56993    0.11734    1.02784   -3.84690    0.00000
       61   -0.58767    2.21263   -0.93728    1.44354   -0.00000
       62   -0.00000   -0.00000    0.00000   -0.00000    0.00190
       63    0.00372   -0.00173   -0.00194    0.00222    0.00000
       64    0.00171   -0.00106   -0.00111    0.00471    0.00000
       65   -0.00000    0.00000    0.00000    0.00000   -0.01549
       66    0.00372   -0.00544   -0.06232    0.00096   -0.00000
       67    0.00206   -0.01268   -0.02894    0.00744    0.00000
       68   -0.00000   -0.00000    0.00000    0.00000    0.06177
       69   -0.08473   -0.03896   -0.18069   -0.46209    0.00000
       70   -0.04668    0.00743   -0.12110   -0.23316    0.00000
       71   -0.00000    0.00000    0.00000   -0.00000    0.00255
       72   -0.00343    0.00394   -0.00708   -0.00178   -0.00000
       73   -0.00180   -0.00187    0.00338    0.00242    0.00000
       74   -0.00000   -0.00000    0.00000   -0.00000    0.00072
       75    0.00271   -0.00315    0.00944    0.00008    0.00000
--------- ---------- ---------- ---------- ---------- ----------
Occ. No.     0.00000    0.00000    0.00000    0.00000    0.00000
Orb. Ene.    0.18389    0.23306    0.24078    0.35545    0.38599
--------- ---------- ---------- ---------- ---------- ----------
        1   -0.02347   -0.01796   -0.00000    0.00443   -0.00000
        2   -0.03909   -0.03059   -0.00000    0.00751   -0.00000
        3    0.14824    0.18784    0.00000   -0.05369   -0.00000
        4    0.03523   -1.43256   -0.00000    0.47419    0.00000
        5    1.86565  -11.99440   -0.00000    4.56945    0.00000
        6    0.00000   -0.00000    0.00000   -0.00000   -0.00000
        7   -0.00000    0.00000   -0.12188   -0.00000   -0.00000
        8    0.09361    0.02696    0.00000   -0.04038   -0.00000
        9    0.00000   -0.00000    0.00000   -0.00000   -0.00000
       10   -0.00000    0.00000   -0.14113    0.00000    0.00000
       11    0.10604    0.05527    0.00000   -0.04946   -0.00000
       12    0.00000    0.00000   -0.00000   -0.00000   -0.00000
       13    0.00000   -0.00000    0.15665    0.00000    0.00000
       14    0.49983    0.87577    0.00000   -0.76237   -0.00000
       15   -0.00000    0.00000   -0.00000   -0.00000   -0.00000
       16    0.00000   -0.00000    3.31465    0.00000    0.00000
       17   -1.96003    3.14954    0.00000   -2.13758   -0.00000
       18    0.00000   -0.00000   -0.00000   -0.00000   -0.00173
       19    0.00000   -0.00000    0.00077    0.00000    0.00000
       20    0.00088    0.00001   -0.00000   -0.00209   -0.00000
       21    0.00000   -0.00000   -0.00000   -0.00000    0.00000
       22    0.00032   -0.00190   -0.00000   -0.00014    0.00000
       23   -0.00000    0.00000    0.00000   -0.00000   -0.03558
       24   -0.00000    0.00000    0.00605   -0.00000   -0.00000
       25   -0.01015   -0.00396   -0.00000   -0.02689    0.00000
       26   -0.00000    0.00000   -0.00000   -0.00000   -0.00000
       27    0.01098   -0.00431   -0.00000   -0.01940   -0.00000
       28    0.00000    0.00000   -0.00000    0.00000    0.06627
       29   -0.00000    0.00000   -0.16407   -0.00000   -0.00000
       30    0.01677   -0.04526   -0.00000    0.17999   -0.00000
       31    0.00000   -0.00000    0.00000    0.00000    0.00000
       32    0.04474    0.14823    0.00000    0.06642    0.00000
       33   -0.00000    0.00000   -0.00053   -0.00000   -0.00000
       34    0.00000    0.00000    0.00000   -0.00000   -0.00029
       35    0.00000   -0.00000    0.00563    0.00000    0.00000
       36   -0.00077   -0.00387   -0.00000   -0.00461    0.00000
       37   -0.00000    0.00000   -0.00000   -0.00000    0.00000
       38   -0.00570   -0.01275   -0.00000    0.00475    0.00000
       39   -0.00000   -0.00000   -0.00000    0.00000   -0.00000
       40   -0.03526    0.02653    0.00126    0.02458   -0.00000
       41    0.15001    0.69482   -0.34840   -0.18144   -0.00000
       42   -1.52786    6.27039   -2.68077   -2.64970   -0.00000
       43    0.12952    0.39802   -1.81627   -0.03337   -0.00000
       44    0.00000    0.00000    0.00000    0.00000   -0.01298
       45    0.00257    0.00452    0.00081    0.00146    0.00000
       46   -0.00102    0.00014   -0.00279    0.00760    0.00000
       47   -0.00000   -0.00000   -0.00000   -0.00000    0.00923
       48   -0.03635   -0.06373    0.04671    0.05949    0.00000
       49    0.00280    0.04604   -0.01091    0.01167   -0.00000
       50    0.00000   -0.00000    0.00000    0.00000   -1.01107
       51   -0.03892   -0.63041    0.35638    0.76503    0.00000
       52    0.03090    0.51948   -0.38464    0.65125    0.00000
       53   -0.00000    0.00000   -0.00000   -0.00000    0.00873
       54   -0.00019   -0.01646    0.01212   -0.00597    0.00000
       55   -0.00076    0.00192    0.00067    0.02265   -0.00000
       56    0.00000   -0.00000    0.00000   -0.00000   -0.01247
       57   -0.00082   -0.01825    0.00397    0.02108    0.00000
       58   -0.03526    0.02653   -0.00126    0.02458    0.00000
       59    0.15001    0.69482    0.34840   -0.18144    0.00000
       60   -1.52786    6.27039    2.68077   -2.64970   -0.00000
       61    0.12952    0.39802    1.81627   -0.03337    0.00000
       62    0.00000   -0.00000   -0.00000    0.00000    0.01298
       63   -0.00257   -0.00452    0.00081   -0.00146    0.00000
       64   -0.00102    0.00014    0.00279    0.00760   -0.00000
       65   -0.00000    0.00000    0.00000   -0.00000   -0.00923
       66    0.03635    0.06373    0.04671   -0.05949    0.00000
       67    0.00280    0.04604    0.01091    0.01167    0.00000
       68    0.00000   -0.00000   -0.00000    0.00000    1.01107
       69    0.03892    0.63041    0.35638   -0.76503    0.00000
       70    0.03090    0.51948    0.38464    0.65125   -0.00000
       71    0.00000   -0.00000   -0.00000    0.00000    0.00873
       72    0.00019    0.01646    0.01212    0.00597    0.00000
       73   -0.00076    0.00192   -0.00067    0.02265    0.00000
       74    0.00000   -0.00000   -0.00000   -0.00000    0.01247
       75   -0.00082   -0.01825   -0.00397    0.02108   -0.00000
--------- ---------- ---------- ---------- ---------- ----------
Occ. No.     0.00000    0.00000    0.00000    0.00000    0.00000
Orb. Ene.    0.42630    0.44853    0.55131    0.60473    0.72810
--------- ---------- ---------- ---------- ---------- ----------
        1   -0.00000   -0.00000   -0.01862    0.00000   -0.05182
        2   -0.00000    0.00000   -0.03574    0.00000   -0.09002
        3   -0.00000   -0.00000    0.23712   -0.00000    0.12348
        4    0.00000    0.00000   -1.67040   -0.00000    7.43579
        5    0.00000    0.00000   -7.74661   -0.00000    9.61382
        6    0.07687    0.00000   -0.00000   -0.00000   -0.00000
        7    0.00000   -0.08119   -0.00000   -0.08372    0.00000
        8   -0.00000    0.00000   -0.11157    0.00000   -0.03990
        9    0.06899    0.00000    0.00000   -0.00000   -0.00000
       10    0.00000   -0.19799   -0.00000   -0.13013    0.00000
       11   -0.00000    0.00000   -0.19936    0.00000   -0.25772
       12    0.70685    0.00000   -0.00000    0.00000    0.00000
       13   -0.00000    2.01487   -0.00000   -0.61942    0.00000
       14   -0.00000   -0.00000   -0.05305    0.00000   -2.48560
       15    1.04182    0.00000   -0.00000   -0.00000    0.00000
       16   -0.00000    3.07401    0.00000   -1.74691    0.00000
       17   -0.00000   -0.00000    2.13208   -0.00000   -1.89075
       18   -0.00000    0.00000   -0.00000   -0.00000   -0.00000
       19    0.00000   -0.00369   -0.00000   -0.00088    0.00000
       20   -0.00000   -0.00000    0.00016   -0.00000   -0.00204
       21    0.00211    0.00000   -0.00000    0.00000   -0.00000
       22    0.00000   -0.00000    0.00419   -0.00000    0.00892
       23   -0.00000   -0.00000   -0.00000    0.00000   -0.00000
       24    0.00000   -0.04157    0.00000    0.00995   -0.00000
       25   -0.00000    0.00000   -0.00082   -0.00000    0.01703
       26    0.02659    0.00000   -0.00000   -0.00000   -0.00000
       27   -0.00000   -0.00000    0.03114    0.00000   -0.06139
       28   -0.00000   -0.00000   -0.00000    0.00000    0.00000
       29    0.00000   -0.59114    0.00000    0.01666   -0.00000
       30    0.00000   -0.00000    0.06324   -0.00000    0.08476
       31   -0.02112    0.00000   -0.00000   -0.00000   -0.00000
       32   -0.00000   -0.00000    0.15206    0.00000   -0.27303
       33    0.00000   -0.01285    0.00000   -0.00038   -0.00000
       34    0.00000    0.00000    0.00000    0.00000   -0.00000
       35   -0.00000    0.00986   -0.00000   -0.00561    0.00000
       36    0.00000    0.00000   -0.00643   -0.00000    0.01415
       37    0.00022   -0.00000    0.00000   -0.00000    0.00000
       38    0.00000    0.00000   -0.00899   -0.00000    0.04306
       39   -0.00184   -0.00000    0.00000   -0.00000   -0.00000
       40   -0.00000    0.12877   -0.12024    0.02196   -0.02189
       41   -0.00000   -0.62410   -1.05413    0.39952   -2.65209
       42    0.00000   -7.87948    6.04403   -0.17573   -5.79593
       43   -0.00000    1.23485   -0.40788    0.84899   -0.30178
       44   -0.01222    0.00000   -0.00000    0.00000   -0.00000
       45   -0.00000   -0.00164   -0.00650    0.01217   -0.01440
       46    0.00000    0.00039    0.00117    0.00973    0.00512
       47    0.01769   -0.00000    0.00000    0.00000   -0.00000
       48    0.00000    0.05067   -0.01633   -0.04278    0.25473
       49   -0.00000   -0.08641    0.01287   -0.02649   -0.13953
       50   -1.16119   -0.00000    0.00000    0.00000   -0.00000
       51   -0.00000    1.71725   -0.76589    1.36347    2.37173
       52    0.00000   -1.43735    0.78844    1.20800   -1.81072
       53    0.01781    0.00000    0.00000   -0.00000    0.00000
       54    0.00000    0.01109   -0.01130   -0.00501    0.06306
       55    0.00000   -0.00544    0.00188    0.00817    0.00043
       56   -0.00193   -0.00000   -0.00000   -0.00000   -0.00000
       57    0.00000   -0.00214    0.00094    0.00747    0.05867
       58   -0.00000   -0.12877   -0.12024   -0.02196   -0.02189
       59   -0.00000    0.62410   -1.05413   -0.39952   -2.65209
       60   -0.00000    7.87948    6.04403    0.17573   -5.79593
       61    0.00000   -1.23485   -0.40788   -0.84899   -0.30178
       62   -0.01222   -0.00000   -0.00000   -0.00000   -0.00000
       63    0.00000   -0.00164    0.00650    0.01217    0.01440
       64    0.00000   -0.00039    0.00117   -0.00973    0.00512
       65    0.01769    0.00000    0.00000   -0.00000    0.00000
       66   -0.00000    0.05067    0.01633   -0.04278   -0.25473
       67   -0.00000    0.08641    0.01287    0.02649   -0.13953
       68   -1.16119   -0.00000    0.00000   -0.00000   -0.00000
       69   -0.00000    1.71725    0.76589    1.36347   -2.37173
       70   -0.00000    1.43735    0.78844   -1.20800   -1.81072
       71   -0.01781   -0.00000   -0.00000   -0.00000   -0.00000
       72   -0.00000    0.01109    0.01130   -0.00501   -0.06306
       73    0.00000    0.00544    0.00188   -0.00817    0.00043
       74   -0.00193   -0.00000   -0.00000   -0.00000   -0.00000
       75    0.00000    0.00214    0.00094   -0.00747    0.05867
--------- ---------- ---------- ---------- ---------- ----------
Occ. No.     0.00000    0.00000    0.00000    0.00000    0.00000
Orb. Ene.    0.80826    0.94365    0.95543    1.02338    1.04752
--------- ---------- ---------- ---------- ---------- ----------
        1   -0.00000    0.01226    0.00000   -0.00000   -0.02945
        2   -0.00000    0.02298   -0.00000   -0.00000   -0.05409
        3    0.00000   -0.12525   -0.00000    0.00000    0.23332
        4    0.00000   -0.41124    0.00000   -0.00000    1.13957
        5    0.00000   -3.93037   -0.00000   -0.00000    0.23674
        6    0.00000   -0.00000    0.14742   -0.00000    0.00000
        7   -0.12385    0.00000    0.00000    0.00000   -0.00000
        8   -0.00000    0.15425    0.00000    0.00000    0.04201
        9   -0.00000   -0.00000    0.40727   -0.00000    0.00000
       10   -0.33795   -0.00000    0.00000    0.00000   -0.00000
       11   -0.00000    0.42668    0.00000    0.00000    0.12019
       12    0.00000    0.00000   -0.38929    0.00000   -0.00000
       13   -4.28291   -0.00000    0.00000   -0.00000    0.00000
       14   -0.00000   -0.34298   -0.00000   -0.00000   -0.86284
       15    0.00000   -0.00000    0.96035   -0.00000   -0.00000
       16   -2.32269    0.00000    0.00000    0.00000   -0.00000
       17   -0.00000    1.61446    0.00000    0.00000    0.80264
       18    0.00000   -0.00000    0.00000    0.01615   -0.00000
       19   -0.01194   -0.00000    0.00000   -0.00000    0.00000
       20   -0.00000   -0.00948   -0.00000   -0.00000   -0.01119
       21   -0.00000    0.00000   -0.01502   -0.00000    0.00000
       22    0.00000    0.01109    0.00000   -0.00000   -0.00839
       23   -0.00000    0.00000   -0.00000    0.03520   -0.00000
       24    0.04767    0.00000    0.00000   -0.00000   -0.00000
       25    0.00000   -0.00467    0.00000   -0.00000   -0.03831
       26   -0.00000    0.00000   -0.01679    0.00000    0.00000
       27   -0.00000    0.01420   -0.00000    0.00000   -0.02921
       28   -0.00000   -0.00000    0.00000    1.43923   -0.00000
       29    0.68286    0.00000    0.00000   -0.00000    0.00000
       30   -0.00000   -0.49048   -0.00000   -0.00000   -1.02886
       31   -0.00000    0.00000   -1.03992    0.00000    0.00000
       32   -0.00000    0.89300    0.00000   -0.00000   -1.15790
       33    0.02504    0.00000   -0.00000    0.00000   -0.00000
       34    0.00000    0.00000   -0.00000   -0.02535    0.00000
       35   -0.01431   -0.00000   -0.00000    0.00000    0.00000
       36    0.00000   -0.00287    0.00000   -0.00000    0.02260
       37    0.00000   -0.00000    0.00746   -0.00000   -0.00000
       38    0.00000   -0.00739    0.00000   -0.00000    0.01934
       39   -0.00000    0.00000   -0.00287    0.00000    0.00000
       40    0.06760   -0.02268   -0.00000    0.00000    0.00449
       41    3.52202    0.75717    0.00000   -0.00000   -1.47124
       42    7.48339    1.72405    0.00000    0.00000    0.48785
       43   -0.42376    0.22127    0.00000   -0.00000   -0.16780
       44    0.00000   -0.00000    0.00205    0.00848   -0.00000
       45    0.00542   -0.00029   -0.00000   -0.00000   -0.00196
       46   -0.01025   -0.00486    0.00000   -0.00000    0.01225
       47   -0.00000    0.00000    0.00632   -0.00808    0.00000
       48   -0.17976    0.04020    0.00000    0.00000    0.08793
       49    0.16432    0.01265   -0.00000    0.00000   -0.05129
       50    0.00000    0.00000   -0.65512   -0.98391    0.00000
       51   -3.45866   -0.22472    0.00000    0.00000   -0.35215
       52    2.31382    0.03451   -0.00000    0.00000   -0.70957
       53   -0.00000   -0.00000    0.00308    0.03294   -0.00000
       54   -0.06363   -0.01035    0.00000    0.00000    0.01151
       55    0.00017    0.01519    0.00000    0.00000   -0.03585
       56    0.00000   -0.00000   -0.00707   -0.02643    0.00000
       57   -0.02662    0.00890    0.00000    0.00000   -0.01664
       58   -0.06760   -0.02268    0.00000   -0.00000    0.00449
       59   -3.52202    0.75717    0.00000    0.00000   -1.47124
       60   -7.48339    1.72405    0.00000   -0.00000    0.48785
       61    0.42376    0.22127    0.00000    0.00000   -0.16780
       62   -0.00000    0.00000    0.00205   -0.00848   -0.00000
       63    0.00542    0.00029    0.00000   -0.00000    0.00196
       64    0.01025   -0.00486    0.00000   -0.00000    0.01225
       65    0.00000   -0.00000    0.00632    0.00808    0.00000
       66   -0.17976   -0.04020   -0.00000    0.00000   -0.08793
       67   -0.16432    0.01265   -0.00000   -0.00000   -0.05129
       68   -0.00000    0.00000   -0.65512    0.98391    0.00000
       69   -3.45866    0.22472    0.00000    0.00000    0.35215
       70   -2.31382    0.03451   -0.00000   -0.00000   -0.70957
       71   -0.00000    0.00000   -0.00308    0.03294    0.00000
       72   -0.06363    0.01035   -0.00000    0.00000   -0.01151
       73   -0.00017    0.01519    0.00000   -0.00000   -0.03585
       74   -0.00000   -0.00000   -0.00707    0.02643    0.00000
       75    0.02662    0.00890    0.00000   -0.00000   -0.01664
--------- ---------- ---------- ---------- ---------- ----------
Occ. No.     0.00000    0.00000    0.00000    0.00000    0.00000
Orb. Ene.    1.05797    1.09315    1.11653    1.55970    1.84975
--------- ---------- ---------- ---------- ---------- ----------
        1    0.00000    0.03166    0.00000   -0.00000   -0.00000
        2    0.00000    0.05766    0.00000   -0.00000   -0.00000
        3   -0.00000   -0.13989   -0.00000    0.00000    0.00000
        4   -0.00000   -2.67557   -0.00000   -0.00000   -0.00000
        5    0.00000   -3.70421   -0.00000    0.00000   -0.00000
        6    0.00000    0.00000   -0.23143    0.00000    0.00000
        7   -0.19340    0.00000   -0.00000    0.11995   -0.00000
        8   -0.00000   -0.20240   -0.00000   -0.00000   -0.00000
        9    0.00000    0.00000   -0.70729    0.00000    0.00000
       10   -0.61579    0.00000   -0.00000    0.33373   -0.00000
       11   -0.00000   -0.51545   -0.00000    0.00000    0.00000
       12   -0.00000   -0.00000    2.16638   -0.00000    0.00000
       13    1.27592   -0.00000   -0.00000  -10.68633    0.00000
       14    0.00000    3.46606    0.00000    0.00000    0.00000
       15   -0.00000    0.00000    0.03182   -0.00000   -0.00000
       16   -0.86214   -0.00000    0.00000   -1.95167    0.00000
       17   -0.00000    0.73260    0.00000   -0.00000    0.00000
       18    0.00000    0.00000    0.00000   -0.00000    0.00266
       19    0.01201   -0.00000    0.00000    0.00174   -0.00000
       20    0.00000   -0.00555   -0.00000    0.00000    0.00000
       21    0.00000    0.00000   -0.00671    0.00000    0.00000
       22    0.00000    0.00092    0.00000   -0.00000   -0.00000
       23    0.00000    0.00000   -0.00000    0.00000    0.08153
       24    0.03008    0.00000    0.00000    0.08044   -0.00000
       25    0.00000   -0.03845   -0.00000   -0.00000   -0.00000
       26   -0.00000    0.00000   -0.02304    0.00000    0.00000
       27    0.00000    0.02110    0.00000    0.00000    0.00000
       28    0.00000    0.00000   -0.00000   -0.00000   -0.71113
       29    0.87991    0.00000    0.00000    4.14219   -0.00000
       30    0.00000   -1.08624   -0.00000   -0.00000   -0.00000
       31    0.00000    0.00000   -0.90212    0.00000   -0.00000
       32    0.00000    0.59462    0.00000    0.00000    0.00000
       33   -0.00490    0.00000    0.00000    0.03319   -0.00000
       34    0.00000   -0.00000    0.00000   -0.00000    0.00722
       35   -0.01626   -0.00000   -0.00000   -0.02572    0.00000
       36   -0.00000    0.01137    0.00000   -0.00000   -0.00000
       37   -0.00000   -0.00000    0.01186    0.00000    0.00000
       38   -0.00000   -0.02884   -0.00000   -0.00000   -0.00000
       39    0.00000    0.00000   -0.02098    0.00000   -0.00000
       40   -0.04078   -0.00100   -0.00000    0.08608    0.00000
       41    0.58858    2.35601    0.00000    8.97375   -0.00000
       42   -0.33504    1.49938    0.00000    6.53673    0.00000
       43    0.86205    0.18193    0.00000   -0.58047   -0.00000
       44    0.00000   -0.00000    0.01134   -0.00000   -0.04968
       45    0.00422    0.02589    0.00000    0.03208    0.00000
       46    0.00226   -0.00161   -0.00000   -0.02597    0.00000
       47    0.00000    0.00000   -0.06941    0.00000    0.98515
       48    0.03145   -0.28360   -0.00000   -0.55280   -0.00000
       49   -0.06323    0.12422    0.00000    0.32987   -0.00000
       50   -0.00000    0.00000   -0.92562    0.00000   -0.25269
       51   -0.22954   -0.78154   -0.00000   -2.97161    0.00000
       52   -0.38980   -0.34292   -0.00000    2.66171   -0.00000
       53    0.00000   -0.00000    0.04935   -0.00000   -0.02978
       54   -0.00811    0.01393    0.00000   -0.04877   -0.00000
       55   -0.02038   -0.05488   -0.00000    0.03257    0.00000
       56   -0.00000    0.00000   -0.03985   -0.00000   -0.00899
       57   -0.02106   -0.05200   -0.00000   -0.00943    0.00000
       58    0.04078   -0.00100    0.00000   -0.08608   -0.00000
       59   -0.58858    2.35601    0.00000   -8.97375    0.00000
       60    0.33504    1.49938    0.00000   -6.53673    0.00000
       61   -0.86205    0.18193    0.00000    0.58047    0.00000
       62   -0.00000   -0.00000    0.01134    0.00000    0.04968
       63    0.00422   -0.02589   -0.00000    0.03208   -0.00000
       64   -0.00226   -0.00161    0.00000    0.02597   -0.00000
       65   -0.00000    0.00000   -0.06941   -0.00000   -0.98515
       66    0.03145    0.28360    0.00000   -0.55280    0.00000
       67    0.06323    0.12422    0.00000   -0.32987    0.00000
       68    0.00000    0.00000   -0.92562    0.00000    0.25269
       69   -0.22954    0.78154    0.00000   -2.97161    0.00000
       70    0.38980   -0.34292   -0.00000   -2.66171    0.00000
       71    0.00000    0.00000   -0.04935    0.00000   -0.02978
       72   -0.00811   -0.01393   -0.00000   -0.04877    0.00000
       73    0.02038   -0.05488   -0.00000   -0.03257   -0.00000
       74    0.00000    0.00000   -0.03985   -0.00000    0.00899
       75    0.02106   -0.05200   -0.00000    0.00943   -0.00000
--------- ---------- ---------- ---------- ---------- ----------
Occ. No.     0.00000    0.00000    0.00000    0.00000    0.00000
Orb. Ene.    1.89719    1.95363    1.99222    2.10958    2.30385
--------- ---------- ---------- ---------- ---------- ----------
        1    0.10053    0.00000    0.00000   -0.02372   -0.00000
        2    0.19524    0.00000    0.00000   -0.03501   -0.00000
        3   -2.21768   -0.00000   -0.00000    0.38004    0.00000
        4   14.11135    0.00000    0.00000   -4.38519   -0.00000
        5    7.24438    0.00000    0.00000   -0.80831   -0.00000
        6    0.00000   -0.06347    0.00000   -0.00000   -0.00000
        7    0.00000    0.00000    0.01071   -0.00000   -0.23949
        8    0.06244    0.00000    0.00000   -0.06272    0.00000
        9    0.00000   -0.04218   -0.00000    0.00000   -0.00000
       10    0.00000   -0.00000   -0.03227   -0.00000    0.29701
       11   -0.43502   -0.00000   -0.00000    0.26413   -0.00000
       12    0.00000   -0.54955   -0.00000   -0.00000   -0.00000
       13   -0.00000    0.00000   -2.77301    0.00000    0.54057
       14   -4.47154   -0.00000   -0.00000    2.51103    0.00000
       15   -0.00000    0.35682   -0.00000    0.00000    0.00000
       16   -0.00000    0.00000    0.44811    0.00000    0.40345
       17   -1.55983   -0.00000   -0.00000   -0.02702    0.00000
       18    0.00000    0.00000    0.00000   -0.00000    0.00000
       19    0.00000   -0.00000   -0.00142   -0.00000    0.01355
       20   -0.00144   -0.00000   -0.00000    0.00598   -0.00000
       21    0.00000   -0.00159    0.00000    0.00000   -0.00000
       22    0.01382    0.00000    0.00000   -0.00519    0.00000
       23    0.00000    0.00000    0.00000    0.00000    0.00000
       24   -0.00000    0.00000    0.12380    0.00000   -0.48173
       25    0.03176    0.00000    0.00000    0.03393    0.00000
       26    0.00000   -0.08397   -0.00000   -0.00000   -0.00000
       27   -0.18987   -0.00000   -0.00000    0.23094   -0.00000
       28   -0.00000   -0.00000   -0.00000   -0.00000    0.00000
       29    0.00000   -0.00000    0.72055   -0.00000    0.61267
       30   -0.03439    0.00000    0.00000   -1.27839   -0.00000
       31   -0.00000    0.51996    0.00000    0.00000    0.00000
       32   -1.49371   -0.00000   -0.00000   -0.26072   -0.00000
       33   -0.00000    0.00000    0.00259    0.00000   -0.07303
       34   -0.00000    0.00000   -0.00000    0.00000   -0.00000
       35    0.00000   -0.00000   -0.02292   -0.00000    0.04832
       36    0.04504    0.00000    0.00000   -0.02763    0.00000
       37    0.00000    0.00259    0.00000   -0.00000   -0.00000
       38    0.09696    0.00000    0.00000   -0.06720    0.00000
       39   -0.00000   -0.00465   -0.00000   -0.00000    0.00000
       40   -0.00392    0.00000   -0.08413   -0.49412    0.87369
       41   -5.55645   -0.00000    2.47106    2.83234   -1.52417
       42   -5.18788   -0.00000    1.67329    0.13021   -0.75834
       43    0.00270   -0.00000   -0.45465    0.17210   -0.31768
       44   -0.00000   -0.05057   -0.00000   -0.00000    0.00000
       45   -0.02397   -0.00000   -0.01224    0.05619   -0.01830
       46    0.03102    0.00000   -0.04070    0.02969    0.00343
       47   -0.00000    1.01959    0.00000    0.00000   -0.00000
       48    0.51849    0.00000    0.48914   -0.87665    0.03156
       49   -0.63296   -0.00000    0.83134   -0.65186    0.16138
       50   -0.00000   -0.31466   -0.00000   -0.00000    0.00000
       51    2.31454    0.00000   -1.72183   -0.74169    0.81201
       52   -1.78456   -0.00000    0.11405    0.34098   -0.77904
       53    0.00000    0.01503   -0.00000    0.00000    0.00000
       54    0.24382    0.00000   -0.03211   -0.06055    0.25846
       55   -0.01012    0.00000   -0.00009   -0.02549   -0.02459
       56   -0.00000    0.02237   -0.00000    0.00000    0.00000
       57    0.13441    0.00000   -0.07855   -0.22767    0.06945
       58   -0.00392    0.00000    0.08413   -0.49412   -0.87369
       59   -5.55645   -0.00000   -2.47106    2.83234    1.52417
       60   -5.18788   -0.00000   -1.67329    0.13021    0.75834
       61    0.00270   -0.00000    0.45465    0.17210    0.31768
       62    0.00000   -0.05057    0.00000   -0.00000   -0.00000
       63    0.02397    0.00000   -0.01224   -0.05619   -0.01830
       64    0.03102    0.00000    0.04070    0.02969   -0.00343
       65   -0.00000    1.01959   -0.00000    0.00000    0.00000
       66   -0.51849   -0.00000    0.48914    0.87665    0.03156
       67   -0.63296    0.00000   -0.83134   -0.65186   -0.16138
       68    0.00000   -0.31466    0.00000   -0.00000   -0.00000
       69   -2.31454   -0.00000   -1.72183    0.74169    0.81201
       70   -1.78456   -0.00000   -0.11405    0.34098    0.77904
       71   -0.00000   -0.01503   -0.00000   -0.00000    0.00000
       72   -0.24382   -0.00000   -0.03211    0.06055    0.25846
       73   -0.01012    0.00000    0.00009   -0.02549    0.02459
       74   -0.00000    0.02237   -0.00000    0.00000   -0.00000
       75    0.13441    0.00000    0.07855   -0.22767   -0.06945
--------- ---------- ---------- ---------- ---------- ----------
Occ. No.     0.00000    0.00000    0.00000    0.00000    0.00000
Orb. Ene.    2.33444    2.83029    2.97890    3.01513    3.03110
--------- ---------- ---------- ---------- ---------- ----------
        1    0.00891    0.01429    0.00000   -0.00721   -0.00000
        2    0.03389    0.02938    0.00000   -0.01818   -0.00000
        3   -0.42616    0.44907    0.00000   -0.04869   -0.00000
        4   -0.74862   -9.35272   -0.00000    3.47496    0.00000
        5    1.25301   -2.22846   -0.00000   -0.28924    0.00000
        6   -0.00000    0.00000   -0.00000   -0.00000    0.00381
        7   -0.00000   -0.00000    0.06609    0.00000   -0.00000
        8   -0.14128    0.15682    0.00000    0.03914   -0.00000
        9    0.00000    0.00000   -0.00000   -0.00000    0.00873
       10    0.00000   -0.00000    0.85858    0.00000   -0.00000
       11    0.30384    0.72782    0.00000   -0.16497   -0.00000
       12   -0.00000    0.00000    0.00000   -0.00000    0.37340
       13   -0.00000   -0.00000    7.53344    0.00000   -0.00000
       14   -0.18028    4.37370    0.00000   -1.10298   -0.00000
       15    0.00000    0.00000    0.00000   -0.00000    0.14568
       16   -0.00000    0.00000    0.36967    0.00000   -0.00000
       17   -0.40022    0.35696    0.00000    0.45181    0.00000
       18    0.00000    0.00000    0.00000    0.00000    0.00000
       19    0.00000   -0.00000    0.03191    0.00000   -0.00000
       20    0.00312    0.00855   -0.00000    0.01769    0.00000
       21   -0.00000    0.00000   -0.00000   -0.00000    0.00254
       22   -0.00852   -0.01701   -0.00000    0.02104    0.00000
       23    0.00000    0.00000    0.00000   -0.00000   -0.00000
       24   -0.00000   -0.00000   -0.19355   -0.00000    0.00000
       25   -0.08399    0.11778   -0.00000    0.35401    0.00000
       26   -0.00000    0.00000    0.00000   -0.00000    0.23171
       27    0.23788   -0.10280   -0.00000    0.10115    0.00000
       28   -0.00000   -0.00000   -0.00000    0.00000   -0.00000
       29    0.00000    0.00000   -2.77841   -0.00000    0.00000
       30    0.67012   -0.74293    0.00000   -0.56041   -0.00000
       31    0.00000   -0.00000   -0.00000    0.00000   -0.65824
       32    0.11158    1.48190    0.00000   -0.61184   -0.00000
       33   -0.00000    0.00000   -0.06623   -0.00000    0.00000
       34   -0.00000    0.00000    0.00000   -0.00000    0.00000
       35    0.00000   -0.00000    0.07410    0.00000   -0.00000
       36   -0.02827   -0.07086   -0.00000    0.06291    0.00000
       37    0.00000   -0.00000   -0.00000    0.00000   -0.12383
       38   -0.11418   -0.08011   -0.00000    0.10135    0.00000
       39    0.00000   -0.00000   -0.00000    0.00000   -0.07305
       40   -0.88332   -0.16610    0.67265    0.30686    0.00000
       41    1.65037    5.67542   -8.08045   -2.34258   -0.00000
       42   -1.41027    1.01494   -1.96698    0.38106    0.00000
       43    0.22042    0.12885    0.04585   -0.08371   -0.00000
       44   -0.00000   -0.00000    0.00000   -0.00000    0.00636
       45   -0.00517    0.06349   -0.04622   -0.01405   -0.00000
       46   -0.03449   -0.02675    0.04634    0.00014   -0.00000
       47    0.00000   -0.00000   -0.00000    0.00000   -0.14072
       48    0.21403   -1.53038    1.33236    0.58801    0.00000
       49    0.63574    0.88877   -1.22186   -0.31826   -0.00000
       50   -0.00000   -0.00000    0.00000    0.00000   -0.24956
       51   -0.08119   -0.87210    1.64020    0.04234   -0.00000
       52    0.10878    0.40981   -1.29810   -0.57169   -0.00000
       53   -0.00000    0.00000   -0.00000   -0.00000    0.46834
       54   -0.07929    0.17998   -0.01360    0.26703    0.00000
       55   -0.03200   -0.00211   -0.10052   -0.27676   -0.00000
       56   -0.00000    0.00000    0.00000   -0.00000    0.47699
       57   -0.07289   -0.27165   -0.02403   -0.38894   -0.00000
       58   -0.88332   -0.16610   -0.67265    0.30686    0.00000
       59    1.65037    5.67542    8.08045   -2.34258   -0.00000
       60   -1.41027    1.01494    1.96698    0.38106   -0.00000
       61    0.22042    0.12885   -0.04585   -0.08371   -0.00000
       62   -0.00000   -0.00000   -0.00000   -0.00000    0.00636
       63    0.00517   -0.06349   -0.04622    0.01405    0.00000
       64   -0.03449   -0.02675   -0.04634    0.00014    0.00000
       65    0.00000   -0.00000   -0.00000    0.00000   -0.14072
       66   -0.21403    1.53038    1.33236   -0.58801   -0.00000
       67    0.63574    0.88877    1.22186   -0.31826   -0.00000
       68   -0.00000   -0.00000   -0.00000    0.00000   -0.24956
       69    0.08119    0.87210    1.64020   -0.04234   -0.00000
       70    0.10878    0.40981    1.29810   -0.57169   -0.00000
       71    0.00000   -0.00000   -0.00000    0.00000   -0.46834
       72    0.07929   -0.17998   -0.01360   -0.26703   -0.00000
       73   -0.03200   -0.00211    0.10052   -0.27676   -0.00000
       74   -0.00000    0.00000    0.00000   -0.00000    0.47699
       75   -0.07289   -0.27165    0.02403   -0.38894   -0.00000
--------- ---------- ---------- ---------- ---------- ----------
Occ. No.     0.00000    0.00000    0.00000    0.00000    0.00000
Orb. Ene.    3.16024    3.26113    3.27194    3.32987    3.43347
--------- ---------- ---------- ---------- ---------- ----------
        1    0.00000    0.00454    0.00000   -0.00000    0.00000
        2    0.00000    0.00633    0.00000   -0.00000    0.00000
        3   -0.00000    0.14698    0.00000    0.00000   -0.00000
        4    0.00000   -2.29924   -0.00000   -0.00000   -0.00000
        5    0.00000   -0.12457   -0.00000   -0.00000   -0.00000
        6    0.00000    0.00000   -0.08520    0.00000    0.00000
        7    0.00000   -0.00000   -0.00000   -0.10875    0.00000
        8   -0.00000    0.13962    0.00000    0.00000    0.00000
        9    0.00000   -0.00000   -0.16255    0.00000    0.00000
       10   -0.00000   -0.00000    0.00000    0.34318   -0.00000
       11   -0.00000    0.14009    0.00000   -0.00000    0.00000
       12    0.00000    0.00000   -0.61478    0.00000    0.00000
       13   -0.00000   -0.00000    0.00000    3.29335    0.00000
       14   -0.00000    1.53693    0.00000    0.00000    0.00000
       15    0.00000    0.00000   -0.29497    0.00000    0.00000
       16   -0.00000   -0.00000    0.00000    0.53816    0.00000
       17   -0.00000    0.07427   -0.00000    0.00000    0.00000
       18    0.02096   -0.00000    0.00000   -0.00000   -0.00504
       19   -0.00000   -0.00000    0.00000    0.02110    0.00000
       20    0.00000    0.01005   -0.00000   -0.00000    0.00000
       21    0.00000    0.00000   -0.01735    0.00000    0.00000
       22    0.00000    0.00194   -0.00000    0.00000   -0.00000
       23    0.63414   -0.00000    0.00000    0.00000   -0.00453
       24   -0.00000    0.00000    0.00000    0.17159    0.00000
       25    0.00000    0.27737    0.00000   -0.00000    0.00000
       26    0.00000    0.00000   -0.68982    0.00000    0.00000
       27    0.00000    0.27560    0.00000    0.00000   -0.00000
       28   -0.90399    0.00000   -0.00000   -0.00000   -0.32838
       29    0.00000    0.00000   -0.00000   -1.79175   -0.00000
       30    0.00000   -0.65089   -0.00000   -0.00000   -0.00000
       31   -0.00000    0.00000    0.67481   -0.00000   -0.00000
       32   -0.00000   -0.37080    0.00000    0.00000    0.00000
       33    0.00000    0.00000   -0.00000   -0.08537   -0.00000
       34    0.08845   -0.00000    0.00000   -0.00000    0.00442
       35   -0.00000   -0.00000    0.00000    0.06544   -0.00000
       36    0.00000    0.08967   -0.00000    0.00000    0.00000
       37    0.00000    0.00000   -0.04188    0.00000    0.00000
       38   -0.00000   -0.03315    0.00000    0.00000   -0.00000
       39   -0.00000   -0.00000    0.04114   -0.00000   -0.00000
       40   -0.00000   -0.05910   -0.00000    0.11722    0.00000
       41    0.00000    1.34267    0.00000   -3.58756   -0.00000
       42    0.00000    0.06385   -0.00000   -1.44546   -0.00000
       43    0.00000    0.00946    0.00000   -0.04087   -0.00000
       44    0.01094    0.00000    0.00775    0.00000   -0.00718
       45   -0.00000    0.01853    0.00000    0.00118   -0.00000
       46    0.00000   -0.01726    0.00000    0.00203    0.00000
       47    0.01465    0.00000   -0.00172   -0.00000    0.13090
       48   -0.00000   -0.59555   -0.00000    0.39426    0.00000
       49    0.00000    0.08338    0.00000   -0.36511   -0.00000
       50    0.54223   -0.00000    0.53033    0.00000    0.01181
       51   -0.00000   -0.37018    0.00000    0.95385    0.00000
       52    0.00000   -0.18036   -0.00000   -0.58228   -0.00000
       53   -0.33639   -0.00000   -0.31353   -0.00000    0.56196
       54   -0.00000   -0.14769    0.00000    0.35913   -0.00000
       55   -0.00000   -0.52646    0.00000    0.59839    0.00000
       56    0.42171   -0.00000    0.43225   -0.00000    0.50012
       57    0.00000    0.31728    0.00000   -0.13162   -0.00000
       58    0.00000   -0.05910   -0.00000   -0.11722   -0.00000
       59   -0.00000    1.34267    0.00000    3.58756    0.00000
       60   -0.00000    0.06385    0.00000    1.44546    0.00000
       61   -0.00000    0.00946    0.00000    0.04087    0.00000
       62   -0.01094    0.00000    0.00775   -0.00000    0.00718
       63    0.00000   -0.01853   -0.00000    0.00118   -0.00000
       64   -0.00000   -0.01726    0.00000   -0.00203   -0.00000
       65   -0.01465    0.00000   -0.00172    0.00000   -0.13090
       66   -0.00000    0.59555    0.00000    0.39426    0.00000
       67   -0.00000    0.08338    0.00000    0.36511    0.00000
       68   -0.54223   -0.00000    0.53033   -0.00000   -0.01181
       69   -0.00000    0.37018    0.00000    0.95385    0.00000
       70   -0.00000   -0.18036    0.00000    0.58228    0.00000
       71   -0.33639    0.00000    0.31353   -0.00000    0.56196
       72   -0.00000    0.14769    0.00000    0.35913   -0.00000
       73    0.00000   -0.52646   -0.00000   -0.59839   -0.00000
       74   -0.42171   -0.00000    0.43225   -0.00000   -0.50012
       75   -0.00000    0.31728    0.00000    0.13162    0.00000
--------- ---------- ---------- ---------- ---------- ----------
Occ. No.     0.00000    0.00000    0.00000    0.00000    0.00000
Orb. Ene.    3.67860    3.82512    4.12049    4.14590    4.41404
--------- ---------- ---------- ---------- ---------- ----------
        1    0.00858   -0.00000    0.00000    0.00000   -0.00000
        2    0.02777   -0.00000   -0.00000    0.00000   -0.00000
        3   -0.50846   -0.00000   -0.00000   -0.00000    0.00000
        4    1.80919    0.00000    0.00000    0.00000    0.00000
        5   -1.42611   -0.00000    0.00000   -0.00000    0.00000
        6   -0.00000    0.00000    0.00000    0.45497    0.00000
        7   -0.00000    0.31295   -0.22797    0.00000    0.00000
        8   -0.24598   -0.00000    0.00000    0.00000   -0.00000
        9    0.00000    0.00000   -0.00000   -0.15476   -0.00000
       10    0.00000   -0.92966   -0.75683    0.00000    0.00000
       11    0.24203   -0.00000   -0.00000    0.00000   -0.00000
       12   -0.00000    0.00000    0.00000    0.72060    0.00000
       13    0.00000    1.55318   -2.78575    0.00000    0.00000
       14   -1.03282   -0.00000   -0.00000   -0.00000   -0.00000
       15    0.00000    0.00000   -0.00000   -0.13055   -0.00000
       16    0.00000   -0.38897   -0.59614    0.00000    0.00000
       17    0.61092    0.00000   -0.00000    0.00000   -0.00000
       18    0.00000    0.00000    0.00000   -0.00000   -0.00443
       19    0.00000   -0.03690   -0.02046    0.00000    0.00000
       20    0.00602    0.00000   -0.00000   -0.00000   -0.00000
       21   -0.00000    0.00000    0.00000   -0.00233   -0.00000
       22   -0.01472   -0.00000    0.00000   -0.00000    0.00000
       23   -0.00000    0.00000   -0.00000    0.00000   -0.99976
       24    0.00000   -0.55013    0.11917   -0.00000   -0.00000
       25    0.64648    0.00000    0.00000    0.00000    0.00000
       26    0.00000   -0.00000   -0.00000   -0.87520   -0.00000
       27   -0.76563   -0.00000    0.00000   -0.00000   -0.00000
       28    0.00000    0.00000    0.00000    0.00000    0.07445
       29   -0.00000   -0.37065    0.92806   -0.00000   -0.00000
       30   -0.14210   -0.00000    0.00000    0.00000   -0.00000
       31    0.00000   -0.00000    0.00000    0.01376    0.00000
       32    0.07831   -0.00000   -0.00000   -0.00000    0.00000
       33   -0.00000    0.06153    0.07777   -0.00000   -0.00000
       34    0.00000   -0.00000   -0.00000   -0.00000   -0.23692
       35    0.00000   -0.14867   -0.10560    0.00000   -0.00000
       36   -0.01233    0.00000   -0.00000    0.00000    0.00000
       37    0.00000    0.00000   -0.00000   -0.08812   -0.00000
       38   -0.12212   -0.00000    0.00000   -0.00000    0.00000
       39    0.00000    0.00000    0.00000    0.09331    0.00000
       40   -0.18288   -0.34093    0.12630   -0.00000   -0.00000
       41   -0.77743   -0.33041    2.49317   -0.00000   -0.00000
       42    0.68407    0.23300    1.41552   -0.00000   -0.00000
       43    0.05986    0.26289   -0.06479    0.00000    0.00000
       44   -0.00000   -0.00000    0.00000   -0.00280    0.01245
       45   -0.03799   -0.03373    0.03984   -0.00000   -0.00000
       46    0.01830    0.01880    0.01196   -0.00000    0.00000
       47    0.00000   -0.00000   -0.00000   -0.24580    0.19718
       48    0.35576   -0.05570   -0.45123    0.00000    0.00000
       49   -0.12157   -0.02376    0.52637   -0.00000   -0.00000
       50    0.00000   -0.00000    0.00000   -0.14096    0.04638
       51   -0.02639   -0.29397   -0.45932    0.00000    0.00000
       52   -0.03183   -0.06363    0.86205   -0.00000   -0.00000
       53   -0.00000    0.00000    0.00000    0.55282   -0.43505
       54   -0.29151   -0.23290   -0.73516    0.00000    0.00000
       55    0.00085    0.18284    0.46796   -0.00000   -0.00000
       56    0.00000   -0.00000    0.00000   -0.31903    0.48730
       57   -0.00148   -0.56812    0.28969   -0.00000    0.00000
       58   -0.18288    0.34093   -0.12630    0.00000    0.00000
       59   -0.77743    0.33041   -2.49317    0.00000    0.00000
       60    0.68407   -0.23300   -1.41552    0.00000    0.00000
       61    0.05986   -0.26289    0.06479    0.00000   -0.00000
       62   -0.00000    0.00000   -0.00000   -0.00280   -0.01245
       63    0.03799   -0.03373    0.03984   -0.00000   -0.00000
       64    0.01830   -0.01880   -0.01196   -0.00000   -0.00000
       65    0.00000    0.00000   -0.00000   -0.24580   -0.19718
       66   -0.35576   -0.05570   -0.45123    0.00000    0.00000
       67   -0.12157    0.02376   -0.52637    0.00000    0.00000
       68    0.00000    0.00000   -0.00000   -0.14096   -0.04638
       69    0.02639   -0.29397   -0.45932    0.00000    0.00000
       70   -0.03183    0.06363   -0.86205    0.00000    0.00000
       71    0.00000    0.00000   -0.00000   -0.55282   -0.43505
       72    0.29151   -0.23290   -0.73516    0.00000    0.00000
       73    0.00085   -0.18284   -0.46796    0.00000    0.00000
       74    0.00000    0.00000   -0.00000   -0.31903   -0.48730
       75   -0.00148    0.56812   -0.28969    0.00000    0.00000
--------- ---------- ---------- ---------- ---------- ----------
Occ. No.     0.00000    0.00000    0.00000    0.00000    0.00000
Orb. Ene.    4.48629    4.92561    5.00545    5.16114    5.49759
--------- ---------- ---------- ---------- ---------- ----------
        1    0.04775    0.00000   -0.06979   -0.00000    0.05830
        2    0.11853    0.00000   -0.16102   -0.00000    0.12787
        3   -1.14326   -0.00000    1.41700    0.00000   -1.22962
        4   -2.83613   -0.00000    5.22687    0.00000   -2.68192
        5   -1.46979   -0.00000    1.36603    0.00000   -0.12161
        6    0.00000   -0.00000   -0.00000    1.05655    0.00000
        7   -0.00000    0.64808    0.00000    0.00000    0.00000
        8    0.47068    0.00000   -0.17190    0.00000   -0.69784
        9   -0.00000    0.00000    0.00000   -1.38446   -0.00000
       10    0.00000    1.01264    0.00000    0.00000   -0.00000
       11    0.58968    0.00000   -0.95173   -0.00000    1.89011
       12   -0.00000   -0.00000   -0.00000    0.85506    0.00000
       13    0.00000    2.51251    0.00000    0.00000    0.00000
       14    1.31560    0.00000   -1.44596   -0.00000    0.07283
       15   -0.00000    0.00000    0.00000   -0.15724   -0.00000
       16    0.00000    0.17050    0.00000    0.00000    0.00000
       17    0.19393    0.00000   -0.22300   -0.00000    0.09807
       18   -0.00000    0.00000    0.00000    0.00000   -0.00000
       19   -0.00000    0.04194    0.00000    0.00000   -0.00000
       20   -0.00119    0.00000   -0.00827    0.00000    0.00237
       21   -0.00000   -0.00000   -0.00000    0.00169    0.00000
       22   -0.02377   -0.00000    0.01809    0.00000   -0.01562
       23   -0.00000    0.00000    0.00000   -0.00000   -0.00000
       24   -0.00000   -1.17439   -0.00000   -0.00000    0.00000
       25   -0.72589    0.00000   -0.51256   -0.00000   -0.10990
       26    0.00000   -0.00000   -0.00000    0.17172   -0.00000
       27   -0.01794    0.00000   -1.06391   -0.00000    0.47227
       28    0.00000    0.00000   -0.00000   -0.00000   -0.00000
       29   -0.00000   -0.31924   -0.00000   -0.00000   -0.00000
       30   -0.06258    0.00000   -0.04609    0.00000    0.16496
       31    0.00000    0.00000    0.00000   -0.14992    0.00000
       32    0.05966    0.00000   -0.43769   -0.00000    0.00416
       33   -0.00000   -0.32207   -0.00000   -0.00000   -0.00000
       34   -0.00000   -0.00000    0.00000    0.00000   -0.00000
       35   -0.00000    0.03128   -0.00000   -0.00000    0.00000
       36   -0.14642    0.00000   -0.22973   -0.00000   -0.42646
       37    0.00000   -0.00000   -0.00000    0.26351   -0.00000
       38   -0.27880   -0.00000    0.27561    0.00000    0.54078
       39    0.00000    0.00000    0.00000   -0.44192   -0.00000
       40    0.07170    0.09604   -0.04270   -0.00000   -0.07296
       41    1.60341   -3.22958   -3.04572   -0.00000    1.67260
       42    0.92160   -1.43657   -0.84919   -0.00000    0.12027
       43    0.03546    0.16009   -0.06347   -0.00000    0.03670
       44   -0.00000    0.00000   -0.00000    0.02120    0.00000
       45    0.01721   -0.00700   -0.02333   -0.00000    0.00486
       46   -0.00248    0.04947    0.01677    0.00000    0.00048
       47    0.00000   -0.00000    0.00000   -0.04130   -0.00000
       48   -0.77291    1.20510    1.02172    0.00000   -0.80680
       49    0.29190   -0.89377   -1.11045   -0.00000    0.67950
       50    0.00000   -0.00000    0.00000   -0.12657    0.00000
       51   -0.57589    1.09376    0.66902    0.00000   -0.32392
       52    0.33553   -0.68475   -0.60141   -0.00000    0.34607
       53   -0.00000    0.00000    0.00000   -0.12013   -0.00000
       54   -0.58318    0.69740    0.80239    0.00000   -0.60665
       55   -0.40810    0.06684   -0.54087   -0.00000   -0.07823
       56    0.00000   -0.00000   -0.00000    0.08553   -0.00000
       57   -0.54778    0.82447    0.36181    0.00000   -0.25153
       58    0.07170   -0.09604   -0.04270   -0.00000   -0.07296
       59    1.60341    3.22958   -3.04572   -0.00000    1.67260
       60    0.92160    1.43657   -0.84919   -0.00000    0.12027
       61    0.03546   -0.16009   -0.06347   -0.00000    0.03670
       62   -0.00000   -0.00000   -0.00000    0.02120    0.00000
       63   -0.01721   -0.00700    0.02333    0.00000   -0.00486
       64   -0.00248   -0.04947    0.01677    0.00000    0.00048
       65    0.00000    0.00000    0.00000   -0.04130   -0.00000
       66    0.77291    1.20510   -1.02172   -0.00000    0.80680
       67    0.29190    0.89377   -1.11045   -0.00000    0.67950
       68    0.00000    0.00000    0.00000   -0.12657    0.00000
       69    0.57589    1.09376   -0.66902   -0.00000    0.32392
       70    0.33553    0.68475   -0.60141   -0.00000    0.34607
       71    0.00000    0.00000   -0.00000    0.12013    0.00000
       72    0.58318    0.69740   -0.80239   -0.00000    0.60665
       73   -0.40810   -0.06684   -0.54087   -0.00000   -0.07823
       74    0.00000    0.00000   -0.00000    0.08553   -0.00000
       75   -0.54778   -0.82447    0.36181    0.00000   -0.25153
--------- ---------- ---------- ---------- ---------- ----------
Occ. No.     0.00000    0.00000    0.00000    0.00000    0.00000
Orb. Ene.    5.67667    5.76656    6.26334    6.50186    6.52208
--------- ---------- ---------- ---------- ---------- ----------
        1    0.00000    0.00000   -0.00248   -0.03852    0.00000
        2    0.00000    0.00000   -0.00332   -0.08229    0.00000
        3   -0.00000   -0.00000    0.01793    0.18469   -0.00000
        4   -0.00000   -0.00000    0.17419    9.80217   -0.00000
        5   -0.00000   -0.00000   -0.03218    2.63359   -0.00000
        6   -0.08220   -0.00000   -0.00000    0.00000    0.00000
        7   -0.00000   -0.23347    0.00000    0.00000    0.00000
        8   -0.00000   -0.00000    0.47911    0.87735   -0.00000
        9    0.12801    0.00000    0.00000   -0.00000   -0.00000
       10    0.00000    1.30752   -0.00000    0.00000   -0.00000
       11    0.00000    0.00000   -0.89029   -2.36419    0.00000
       12    0.08645   -0.00000   -0.00000   -0.00000   -0.00000
       13   -0.00000   -2.11681   -0.00000   -0.00000    0.00000
       14    0.00000    0.00000   -0.53037   -3.37549    0.00000
       15    0.05210   -0.00000    0.00000   -0.00000   -0.00000
       16   -0.00000   -0.19981    0.00000   -0.00000    0.00000
       17    0.00000    0.00000   -0.08507   -0.56037    0.00000
       18    0.00000    0.00000    0.00000    0.00000   -0.03460
       19    0.00000    0.02075   -0.00000    0.00000    0.00000
       20    0.00000    0.00000    0.02684    0.00808    0.00000
       21   -0.00335    0.00000    0.00000    0.00000    0.00000
       22   -0.00000   -0.00000    0.01758   -0.01165    0.00000
       23    0.00000   -0.00000    0.00000   -0.00000   -0.63875
       24   -0.00000   -0.56399    0.00000   -0.00000    0.00000
       25   -0.00000    0.00000    0.62766    0.20627   -0.00000
       26   -0.06505   -0.00000    0.00000    0.00000    0.00000
       27    0.00000    0.00000    0.34142   -0.60447    0.00000
       28    0.00000   -0.00000    0.00000   -0.00000   -0.57669
       29    0.00000    1.00518   -0.00000    0.00000    0.00000
       30    0.00000    0.00000    0.77712    0.33337   -0.00000
       31   -0.22262    0.00000    0.00000    0.00000    0.00000
       32    0.00000    0.00000    0.34249   -1.12923    0.00000
       33    0.00000    0.88654    0.00000    0.00000   -0.00000
       34   -0.00000    0.00000   -0.00000    0.00000    1.25941
       35   -0.00000   -0.31686    0.00000    0.00000   -0.00000
       36   -0.00000   -0.00000   -1.02088    0.22433   -0.00000
       37    0.96443   -0.00000   -0.00000   -0.00000   -0.00000
       38    0.00000    0.00000   -0.16063    0.93517   -0.00000
       39    0.41283    0.00000    0.00000    0.00000    0.00000
       40   -0.00000    0.24783    0.13095   -0.55919    0.00000
       41    0.00000    0.74974   -0.30701   -4.98255    0.00000
       42    0.00000    1.08353    0.13916   -1.75859   -0.00000
       43    0.00000   -0.27885   -0.03573   -0.04240    0.00000
       44   -0.01385    0.00000    0.00000   -0.00000   -0.09694
       45    0.00000    0.03548    0.03950   -0.16431    0.00000
       46    0.00000   -0.00629   -0.07434    0.18316   -0.00000
       47   -0.06780    0.00000    0.00000    0.00000    0.71958
       48   -0.00000    0.46294    0.46726    1.72054   -0.00000
       49    0.00000   -0.27761    0.58240   -1.13478    0.00000
       50   -0.07328    0.00000    0.00000    0.00000    0.15904
       51   -0.00000   -0.24854    0.14418    1.05808   -0.00000
       52    0.00000    0.29326    0.19396   -0.73298    0.00000
       53    0.27581   -0.00000    0.00000   -0.00000   -0.55580
       54   -0.00000    0.49340   -0.22794    0.34892   -0.00000
       55   -0.00000    0.07115    0.46445    0.06344   -0.00000
       56    0.24893    0.00000    0.00000    0.00000    0.43390
       57   -0.00000    0.27068    0.40826    0.33608   -0.00000
       58    0.00000   -0.24783    0.13095   -0.55919   -0.00000
       59    0.00000   -0.74974   -0.30701   -4.98255    0.00000
       60    0.00000   -1.08353    0.13916   -1.75859    0.00000
       61    0.00000    0.27885   -0.03573   -0.04240   -0.00000
       62   -0.01385   -0.00000   -0.00000   -0.00000    0.09694
       63   -0.00000    0.03548   -0.03950    0.16431    0.00000
       64   -0.00000    0.00629   -0.07434    0.18316   -0.00000
       65   -0.06780   -0.00000    0.00000    0.00000   -0.71958
       66    0.00000    0.46294   -0.46726   -1.72054   -0.00000
       67    0.00000    0.27761    0.58240   -1.13478    0.00000
       68   -0.07328   -0.00000    0.00000    0.00000   -0.15904
       69    0.00000   -0.24854   -0.14418   -1.05808    0.00000
       70    0.00000   -0.29326    0.19396   -0.73298    0.00000
       71   -0.27581   -0.00000    0.00000    0.00000   -0.55580
       72    0.00000    0.49340    0.22794   -0.34892    0.00000
       73   -0.00000   -0.07115    0.46445    0.06344    0.00000
       74    0.24893   -0.00000    0.00000    0.00000   -0.43390
       75   -0.00000   -0.27068    0.40826    0.33608    0.00000
--------- ---------- ---------- ---------- ---------- ----------
Occ. No.     0.00000    0.00000    0.00000    0.00000    0.00000
Orb. Ene.    6.53364    6.80449    7.02346    8.51561    8.54876
--------- ---------- ---------- ---------- ---------- ----------
        1    0.00000   -0.00000   -0.00000   -0.00000   -0.00000
        2    0.00000    0.00000   -0.00000   -0.00000   -0.00000
        3   -0.00000   -0.00000    0.00000    0.00000    0.00000
        4   -0.00000    0.00000    0.00000    0.00000    0.00000
        5   -0.00000    0.00000   -0.00000    0.00000    0.00000
        6    0.59414   -0.00000   -0.00000    0.00000   -0.03928
        7    0.00000    0.28293   -1.12255   -0.00000    0.00000
        8   -0.00000    0.00000    0.00000    0.00000    0.00000
        9   -1.15522    0.00000    0.00000   -0.00000    0.19006
       10   -0.00000   -1.57145    4.15169    0.00000   -0.00000
       11    0.00000   -0.00000   -0.00000   -0.00000   -0.00000
       12   -0.43140   -0.00000   -0.00000   -0.00000    0.24497
       13    0.00000   -2.30826    4.17501   -0.00000    0.00000
       14    0.00000   -0.00000   -0.00000   -0.00000    0.00000
       15   -0.06209    0.00000    0.00000    0.00000   -0.16507
       16    0.00000   -0.38213    0.34788    0.00000    0.00000
       17    0.00000   -0.00000    0.00000   -0.00000   -0.00000
       18    0.00000    0.00000   -0.00000    0.02161    0.00000
       19    0.00000    0.01831   -0.00768    0.00000    0.00000
       20   -0.00000    0.00000    0.00000    0.00000    0.00000
       21    0.02828    0.00000   -0.00000   -0.00000    0.00740
       22    0.00000    0.00000   -0.00000   -0.00000   -0.00000
       23    0.00000    0.00000   -0.00000   -0.07792   -0.00000
       24    0.00000    1.02107   -1.41742   -0.00000    0.00000
       25   -0.00000    0.00000    0.00000    0.00000   -0.00000
       26    0.52165   -0.00000    0.00000    0.00000   -0.10823
       27    0.00000    0.00000   -0.00000    0.00000   -0.00000
       28    0.00000    0.00000   -0.00000   -0.16049   -0.00000
       29   -0.00000    1.18609   -1.50305    0.00000   -0.00000
       30   -0.00000    0.00000    0.00000    0.00000   -0.00000
       31    0.43798   -0.00000    0.00000    0.00000   -0.19468
       32    0.00000   -0.00000   -0.00000   -0.00000   -0.00000
       33   -0.00000   -0.28088   -0.63326    0.00000   -0.00000
       34   -0.00000   -0.00000    0.00000   -0.06363   -0.00000
       35   -0.00000   -1.27161   -0.25660    0.00000   -0.00000
       36   -0.00000   -0.00000   -0.00000   -0.00000    0.00000
       37   -0.37323    0.00000   -0.00000   -0.00000    0.03938
       38   -0.00000    0.00000    0.00000    0.00000    0.00000
       39    1.04398   -0.00000    0.00000    0.00000   -0.02128
       40    0.00000    0.26683   -0.32062    0.00000   -0.00000
       41    0.00000    3.36781   -5.80553   -0.00000    0.00000
       42    0.00000    0.79660   -1.13193   -0.00000   -0.00000
       43    0.00000    0.09754   -0.11543   -0.00000    0.00000
       44   -0.03709    0.00000   -0.00000   -0.90634    0.91803
       45    0.00000    0.18703   -0.15248   -0.00000    0.00000
       46   -0.00000   -0.05050    0.17764   -0.00000    0.00000
       47    0.69097   -0.00000    0.00000    0.67055   -0.77685
       48   -0.00000   -1.60337    1.93132    0.00000   -0.00000
       49    0.00000    0.50524   -1.98988    0.00000   -0.00000
       50    0.16649   -0.00000   -0.00000   -0.16893    0.16164
       51   -0.00000   -0.62290    1.12932    0.00000    0.00000
       52    0.00000    0.45269   -0.80824   -0.00000   -0.00000
       53   -0.58096    0.00000   -0.00000   -0.03666    0.12935
       54   -0.00000   -0.35181    0.94112   -0.00000    0.00000
       55   -0.00000   -0.53361   -0.39992    0.00000   -0.00000
       56    0.45384   -0.00000    0.00000    0.06063   -0.05648
       57   -0.00000   -0.59643    0.43602    0.00000   -0.00000
       58    0.00000   -0.26683    0.32062   -0.00000   -0.00000
       59    0.00000   -3.36781    5.80553   -0.00000    0.00000
       60    0.00000   -0.79660    1.13193    0.00000   -0.00000
       61    0.00000   -0.09754    0.11543    0.00000    0.00000
       62   -0.03709   -0.00000    0.00000    0.90634    0.91803
       63   -0.00000    0.18703   -0.15248    0.00000   -0.00000
       64   -0.00000    0.05050   -0.17764    0.00000    0.00000
       65    0.69097    0.00000   -0.00000   -0.67055   -0.77685
       66    0.00000   -1.60337    1.93132   -0.00000    0.00000
       67    0.00000   -0.50524    1.98988   -0.00000   -0.00000
       68    0.16649    0.00000   -0.00000    0.16893    0.16164
       69    0.00000   -0.62290    1.12932    0.00000    0.00000
       70    0.00000   -0.45269    0.80824    0.00000    0.00000
       71    0.58096    0.00000   -0.00000   -0.03666   -0.12935
       72    0.00000   -0.35181    0.94112   -0.00000   -0.00000
       73   -0.00000    0.53361    0.39992   -0.00000   -0.00000
       74    0.45384    0.00000   -0.00000   -0.06063   -0.05648
       75   -0.00000    0.59643   -0.43602   -0.00000   -0.00000
--------- ---------- ---------- ---------- ---------- ----------
Occ. No.     0.00000    0.00000    0.00000    0.00000    0.00000
Orb. Ene.    8.64332    8.74005    9.88354    9.92720   14.74937
--------- ---------- ---------- ---------- ---------- ----------
        1   -0.00225   -0.00000   -0.00000   -0.00373    0.00000
        2   -0.00028    0.00000   -0.00000   -0.03984   -0.00000
        3    0.10711    0.00000    0.00000    0.58774   -0.00000
        4   -1.59051   -0.00000    0.00000    2.54390    0.00000
        5   -0.09552   -0.00000   -0.00000   -0.12202   -0.00000
        6    0.00000    0.00000    0.00000    0.00000    0.06417
        7   -0.00000    0.03419    0.20175   -0.00000   -0.00000
        8   -0.07013   -0.00000   -0.00000   -0.14018    0.00000
        9   -0.00000    0.00000   -0.00000   -0.00000   -0.19630
       10    0.00000   -0.03446    0.37012   -0.00000   -0.00000
       11    0.30262    0.00000   -0.00000   -0.34617   -0.00000
       12   -0.00000    0.00000   -0.00000    0.00000   -0.04033
       13   -0.00000    1.26298    2.16758   -0.00000   -0.00000
       14    1.12960    0.00000   -0.00000   -1.23311   -0.00000
       15    0.00000    0.00000   -0.00000   -0.00000    0.08560
       16    0.00000   -0.23488   -0.00260    0.00000   -0.00000
       17   -0.10375   -0.00000    0.00000    0.10946    0.00000
       18   -0.00000   -0.00000   -0.00000    0.00000   -0.00000
       19   -0.00000    0.01128    0.18081   -0.00000    0.00000
       20    0.01492    0.00000   -0.00000   -0.00040   -0.00000
       21   -0.00000   -0.00000   -0.00000    0.00000   -1.15867
       22    0.00907    0.00000    0.00000    0.12742   -0.00000
       23   -0.00000   -0.00000    0.00000    0.00000    0.00000
       24   -0.00000    0.12221    0.00003    0.00000   -0.00000
       25   -0.14932   -0.00000    0.00000    0.02099    0.00000
       26    0.00000   -0.00000    0.00000   -0.00000    0.75609
       27   -0.05078   -0.00000    0.00000    0.01024    0.00000
       28   -0.00000   -0.00000   -0.00000    0.00000   -0.00000
       29    0.00000   -0.46111   -0.70161    0.00000    0.00000
       30   -0.57507   -0.00000    0.00000    0.18276   -0.00000
       31    0.00000   -0.00000    0.00000   -0.00000   -0.14947
       32   -0.06591   -0.00000   -0.00000   -0.22652    0.00000
       33   -0.00000    0.02374    0.18722   -0.00000    0.00000
       34    0.00000   -0.00000   -0.00000   -0.00000   -0.00000
       35    0.00000    0.01171   -0.30295    0.00000    0.00000
       36    0.06607    0.00000   -0.00000   -0.27655   -0.00000
       37   -0.00000   -0.00000   -0.00000   -0.00000   -0.05161
       38   -0.04258   -0.00000   -0.00000   -0.47365   -0.00000
       39    0.00000   -0.00000    0.00000    0.00000    0.10953
       40    0.03106    0.00118    0.31930    0.33511   -0.00000
       41    0.94059   -0.99728   -2.51055   -1.97953    0.00000
       42    0.00827   -0.43224   -0.31413    0.22967    0.00000
       43    0.01923    0.19379    0.04862   -0.04181   -0.00000
       44   -0.00000   -0.00000   -0.00000   -0.00000   -0.01074
       45    0.64529    0.44516   -0.86687   -0.75732    0.00000
       46    0.67696    0.80890    0.49458    0.66942   -0.00000
       47    0.00000    0.00000    0.00000    0.00000    0.15464
       48   -0.81801   -0.35103    1.01124    1.01874    0.00000
       49   -0.57657   -0.66553   -0.73708   -0.69587    0.00000
       50   -0.00000   -0.00000   -0.00000   -0.00000   -0.07231
       51   -0.11742    0.50144    0.30382    0.15981   -0.00000
       52    0.08789    0.04018   -0.33149   -0.03256    0.00000
       53   -0.00000   -0.00000    0.00000    0.00000   -0.14675
       54    0.01851    0.01817    0.20954    0.20633   -0.00000
       55   -0.16337   -0.06435   -0.02923    0.01687    0.00000
       56    0.00000   -0.00000   -0.00000   -0.00000    0.08736
       57   -0.06971   -0.13303    0.12287    0.16315    0.00000
       58    0.03106   -0.00118   -0.31930    0.33511    0.00000
       59    0.94059    0.99728    2.51055   -1.97953   -0.00000
       60    0.00827    0.43224    0.31413    0.22967   -0.00000
       61    0.01923   -0.19379   -0.04862   -0.04181    0.00000
       62   -0.00000    0.00000    0.00000   -0.00000   -0.01074
       63   -0.64529    0.44516   -0.86687    0.75732    0.00000
       64    0.67696   -0.80890   -0.49458    0.66942    0.00000
       65    0.00000   -0.00000   -0.00000    0.00000    0.15464
       66    0.81801   -0.35103    1.01124   -1.01874   -0.00000
       67   -0.57657    0.66553    0.73708   -0.69587    0.00000
       68   -0.00000    0.00000    0.00000   -0.00000   -0.07231
       69    0.11742    0.50144    0.30382   -0.15981   -0.00000
       70    0.08789   -0.04018    0.33149   -0.03256   -0.00000
       71    0.00000   -0.00000    0.00000   -0.00000    0.14675
       72   -0.01851    0.01817    0.20954   -0.20633    0.00000
       73   -0.16337    0.06435    0.02923    0.01687    0.00000
       74    0.00000    0.00000    0.00000   -0.00000    0.08736
       75   -0.06971    0.13303   -0.12287    0.16315    0.00000
--------- ---------- ---------- ---------- ---------- ----------
Occ. No.     0.00000    0.00000    0.00000    0.00000    0.00000
Orb. Ene.   14.78518   14.92137   15.25812   15.83363   50.83309
--------- ---------- ---------- ---------- ---------- ----------
        1    0.01282   -0.00000   -0.01659    0.00000   -2.25488
        2    0.00662   -0.00000   -0.00763    0.00000    2.39665
        3    0.01221   -0.00000    0.03047   -0.00000   -0.62605
        4   -1.39358    0.00000    1.03740   -0.00000   -0.61166
        5    0.10939    0.00000    0.19306   -0.00000    0.02653
        6    0.00000   -0.00000    0.00000   -0.00000    0.00000
        7    0.00000   -0.00000   -0.00000   -0.26933   -0.00000
        8   -0.11025    0.00000    0.01995   -0.00000   -0.04883
        9   -0.00000    0.00000   -0.00000    0.00000    0.00000
       10   -0.00000    0.00000    0.00000    1.19754    0.00000
       11    0.36670   -0.00000   -0.07546    0.00000    0.38884
       12   -0.00000    0.00000   -0.00000    0.00000   -0.00000
       13   -0.00000   -0.00000    0.00000    0.90115    0.00000
       14    0.47094   -0.00000   -0.13825    0.00000    0.21824
       15    0.00000   -0.00000    0.00000   -0.00000   -0.00000
       16   -0.00000    0.00000    0.00000    0.02741    0.00000
       17   -0.13044    0.00000   -0.06734    0.00000   -0.03289
       18   -0.00000   -1.16722   -0.00000    0.00000    0.00000
       19   -0.00000    0.00000    0.00000    1.20208    0.00000
       20    0.93978   -0.00000    0.69762   -0.00000    0.00107
       21   -0.00000    0.00000   -0.00000    0.00000   -0.00000
       22   -0.67715   -0.00000    0.95266   -0.00000   -0.02565
       23    0.00000    0.82775    0.00000   -0.00000   -0.00000
       24    0.00000   -0.00000   -0.00000   -1.32181   -0.00000
       25   -0.62701    0.00000   -0.57665    0.00000   -0.01115
       26    0.00000   -0.00000    0.00000   -0.00000    0.00000
       27    0.45183    0.00000   -0.77913    0.00000    0.15323
       28   -0.00000   -0.12112   -0.00000    0.00000   -0.00000
       29    0.00000    0.00000   -0.00000   -0.11619   -0.00000
       30    0.08849    0.00000   -0.04476    0.00000    0.00052
       31   -0.00000    0.00000   -0.00000    0.00000    0.00000
       32   -0.01340   -0.00000   -0.01751    0.00000    0.05842
       33    0.00000   -0.00000   -0.00000   -0.12664   -0.00000
       34   -0.00000   -0.17934   -0.00000    0.00000    0.00000
       35   -0.00000    0.00000    0.00000    0.25299    0.00000
       36   -0.00246   -0.00000    0.18847   -0.00000   -0.02476
       37   -0.00000    0.00000   -0.00000    0.00000   -0.00000
       38   -0.12631   -0.00000    0.16431   -0.00000   -0.04278
       39    0.00000   -0.00000    0.00000   -0.00000    0.00000
       40    0.12268   -0.00000   -0.14011   -0.27218    0.01337
       41    0.61140   -0.00000   -0.37994   -1.34656    0.60259
       42    0.01862    0.00000   -0.21197   -0.27492   -0.11308
       43   -0.00593   -0.00000    0.00870   -0.01230    0.03274
       44   -0.00000   -0.00095   -0.00000    0.00000   -0.00000
       45   -0.07191    0.00000    0.11077    0.18350    0.02434
       46    0.06932   -0.00000   -0.08558   -0.13629   -0.02326
       47    0.00000   -0.17256    0.00000    0.00000    0.00000
       48   -0.23793    0.00000   -0.01444    0.61391   -0.29865
       49    0.04583   -0.00000   -0.27366   -0.40072    0.23949
       50   -0.00000    0.06200   -0.00000   -0.00000    0.00000
       51   -0.14100    0.00000    0.14455    0.31855   -0.05155
       52    0.15549   -0.00000   -0.10879   -0.24197    0.04194
       53   -0.00000    0.15769   -0.00000   -0.00000   -0.00000
       54   -0.01729    0.00000    0.11609    0.26552   -0.16916
       55   -0.06862    0.00000   -0.20848    0.05475    0.01432
       56    0.00000   -0.14380    0.00000    0.00000    0.00000
       57   -0.09445    0.00000   -0.07849    0.23171   -0.09879
       58    0.12268    0.00000   -0.14011    0.27218    0.01337
       59    0.61140   -0.00000   -0.37994    1.34656    0.60259
       60    0.01862   -0.00000   -0.21197    0.27492   -0.11308
       61   -0.00593    0.00000    0.00870    0.01230    0.03274
       62   -0.00000    0.00095   -0.00000   -0.00000   -0.00000
       63    0.07191    0.00000   -0.11077    0.18350   -0.02434
       64    0.06932    0.00000   -0.08558    0.13629   -0.02326
       65    0.00000    0.17256    0.00000   -0.00000    0.00000
       66    0.23793   -0.00000    0.01444    0.61391    0.29865
       67    0.04583   -0.00000   -0.27366    0.40072    0.23949
       68   -0.00000   -0.06200   -0.00000    0.00000    0.00000
       69    0.14100   -0.00000   -0.14455    0.31855    0.05155
       70    0.15549   -0.00000   -0.10879    0.24197    0.04194
       71    0.00000    0.15769    0.00000   -0.00000    0.00000
       72    0.01729    0.00000   -0.11609    0.26552    0.16916
       73   -0.06862    0.00000   -0.20848   -0.05475    0.01432
       74    0.00000    0.14380    0.00000   -0.00000    0.00000
       75   -0.09445   -0.00000   -0.07849   -0.23171   -0.09879

Final Energies
--------------
Component                 Value

E_nn             9.197681339814
T_s             76.214297215445 
E_ne          -199.293413742655 
E_J             46.761211053086 
E_X             -0.000000000000 
E_XC            -9.310285300874
E_el           -85.628190774997
E_dsp            0.000000000000
E_tot          -76.430509435183

Plotting Grid
-------------
Plotting Grid Generator:
['DFT']

DFT Quadrature Grid Generation
------------------------------
 Radial Grid Type:          LMG
Angular Grid Type:      LEBEDEV
     Grid Pruning:         True
 Total GridPoints:       281966
  Number Screened:          616
     Time Elapsed:      1.8975s

Execution Summary
-----------------
Calculation Ended on: Mon, 20 May 2019 01:19:53
Total Execution Time:       251.21 sec.
